﻿"""molecular_entity_name""",database_identifier,var1_levels,var1_uri,var2_levels,var2_uri,var3_levels,var3_uri,treatment,sample_size,sample_mean,unit,sem
"""hexan-2-ol""",CHEBI:88370,R. chinensis 'Old Blush',http://purl.obolibrary.org/obo/NCBITaxon_74649,sepal,http://purl.obolibrary.org/obo/PO_0009031,A,,R. chinensis 'Old Blush' sepals,3,,,
"""hexanal""",CHEBI:88528,R. chinensis 'Old Blush',http://purl.obolibrary.org/obo/NCBITaxon_74649,sepal,http://purl.obolibrary.org/obo/PO_0009031,A,,R. chinensis 'Old Blush' sepals,3,4.95,,0.59
"""(E)-2-hexenal""",CHEBI:28913,R. chinensis 'Old Blush',http://purl.obolibrary.org/obo/NCBITaxon_74649,sepal,http://purl.obolibrary.org/obo/PO_0009031,A,,R. chinensis 'Old Blush' sepals,3,57.62,,7.34
"""(Z)-3-hexen-1-ol""",CHEBI:28857,R. chinensis 'Old Blush',http://purl.obolibrary.org/obo/NCBITaxon_74649,sepal,http://purl.obolibrary.org/obo/PO_0009031,A,,R. chinensis 'Old Blush' sepals,3,7.64,,0.63
"""(E)-2-hexen-1-ol""",CHEBI:141205,R. chinensis 'Old Blush',http://purl.obolibrary.org/obo/NCBITaxon_74649,sepal,http://purl.obolibrary.org/obo/PO_0009031,A,,R. chinensis 'Old Blush' sepals,3,1.79,,0.98
"""hexan-1-ol""",CHEBI:87393,R. chinensis 'Old Blush',http://purl.obolibrary.org/obo/NCBITaxon_74649,sepal,http://purl.obolibrary.org/obo/PO_0009031,A,,R. chinensis 'Old Blush' sepals,3,,,
"""nonane""",CHEBI:32892,R. chinensis 'Old Blush',http://purl.obolibrary.org/obo/NCBITaxon_74649,sepal,http://purl.obolibrary.org/obo/PO_0009031,A,,R. chinensis 'Old Blush' sepals,3,2.09,,0.07
"""alpha-pinene""",CHEBI:36740,R. chinensis 'Old Blush',http://purl.obolibrary.org/obo/NCBITaxon_74649,sepal,http://purl.obolibrary.org/obo/PO_0009031,A,,R. chinensis 'Old Blush' sepals,3,,,
"""benzaldehyde""",CHEBI:17169,R. chinensis 'Old Blush',http://purl.obolibrary.org/obo/NCBITaxon_74649,sepal,http://purl.obolibrary.org/obo/PO_0009031,A,,R. chinensis 'Old Blush' sepals,3,,,
"""beta-myrcene""",CHEBI:17221,R. chinensis 'Old Blush',http://purl.obolibrary.org/obo/NCBITaxon_74649,sepal,http://purl.obolibrary.org/obo/PO_0009031,A,,R. chinensis 'Old Blush' sepals,3,,,
"""(Z)-3-hexenyl acetate""",CHEBI:61316,R. chinensis 'Old Blush',http://purl.obolibrary.org/obo/NCBITaxon_74649,sepal,http://purl.obolibrary.org/obo/PO_0009031,A,,R. chinensis 'Old Blush' sepals,3,7.1,,1.16
"""hexyl acetate""",CHEBI:87510,R. chinensis 'Old Blush',http://purl.obolibrary.org/obo/NCBITaxon_74649,sepal,http://purl.obolibrary.org/obo/PO_0009031,A,,R. chinensis 'Old Blush' sepals,3,,,
"""(E)-hexenyl acetate""",CHEBI:141209,R. chinensis 'Old Blush',http://purl.obolibrary.org/obo/NCBITaxon_74649,sepal,http://purl.obolibrary.org/obo/PO_0009031,A,,R. chinensis 'Old Blush' sepals,3,,,
"""(+/-)-limonene""",CHEBI:15384,R. chinensis 'Old Blush',http://purl.obolibrary.org/obo/NCBITaxon_74649,sepal,http://purl.obolibrary.org/obo/PO_0009031,A,,R. chinensis 'Old Blush' sepals,3,,,
"""benzylalcohol""",CHEBI:17987,R. chinensis 'Old Blush',http://purl.obolibrary.org/obo/NCBITaxon_74649,sepal,http://purl.obolibrary.org/obo/PO_0009031,A,,R. chinensis 'Old Blush' sepals,3,,,
"""phenylacetaldehyde""",CHEBI:16424,R. chinensis 'Old Blush',http://purl.obolibrary.org/obo/NCBITaxon_74649,sepal,http://purl.obolibrary.org/obo/PO_0009031,A,,R. chinensis 'Old Blush' sepals,3,,,
"""(E)-beta-ocimene""",CHEBI:64280,R. chinensis 'Old Blush',http://purl.obolibrary.org/obo/NCBITaxon_74649,sepal,http://purl.obolibrary.org/obo/PO_0009031,A,,R. chinensis 'Old Blush' sepals,3,,,
"""(+/-)-linalool""",CHEBI:17580,R. chinensis 'Old Blush',http://purl.obolibrary.org/obo/NCBITaxon_74649,sepal,http://purl.obolibrary.org/obo/PO_0009031,A,,R. chinensis 'Old Blush' sepals,3,,,
"""nonanal""",CHEBI:84268,R. chinensis 'Old Blush',http://purl.obolibrary.org/obo/NCBITaxon_74649,sepal,http://purl.obolibrary.org/obo/PO_0009031,A,,R. chinensis 'Old Blush' sepals,3,9.26,,1.19
"""2-phenylethanol""",CHEBI:49000,R. chinensis 'Old Blush',http://purl.obolibrary.org/obo/NCBITaxon_74649,sepal,http://purl.obolibrary.org/obo/PO_0009031,A,,R. chinensis 'Old Blush' sepals,3,,,
"""(+/-)-beta-citronellal""",CHEBI:47856,R. chinensis 'Old Blush',http://purl.obolibrary.org/obo/NCBITaxon_74649,sepal,http://purl.obolibrary.org/obo/PO_0009031,A,,R. chinensis 'Old Blush' sepals,3,,,
"""(+/-)-alpha-terpineol""",CHEBI:22469,R. chinensis 'Old Blush',http://purl.obolibrary.org/obo/NCBITaxon_74649,sepal,http://purl.obolibrary.org/obo/PO_0009031,A,,R. chinensis 'Old Blush' sepals,3,,,
"""decanal""",CHEBI:31457,R. chinensis 'Old Blush',http://purl.obolibrary.org/obo/NCBITaxon_74649,sepal,http://purl.obolibrary.org/obo/PO_0009031,A,,R. chinensis 'Old Blush' sepals,3,5.42,,3.38
"""nerol""",CHEBI:29452,R. chinensis 'Old Blush',http://purl.obolibrary.org/obo/NCBITaxon_74649,sepal,http://purl.obolibrary.org/obo/PO_0009031,A,,R. chinensis 'Old Blush' sepals,3,,,
"""(+/-)-beta-citronellol""",CHEBI:50462,R. chinensis 'Old Blush',http://purl.obolibrary.org/obo/NCBITaxon_74649,sepal,http://purl.obolibrary.org/obo/PO_0009031,A,,R. chinensis 'Old Blush' sepals,3,,,
"""neral""",CHEBI:29020,R. chinensis 'Old Blush',http://purl.obolibrary.org/obo/NCBITaxon_74649,sepal,http://purl.obolibrary.org/obo/PO_0009031,A,,R. chinensis 'Old Blush' sepals,3,,,
"""geraniol""",CHEBI:17447,R. chinensis 'Old Blush',http://purl.obolibrary.org/obo/NCBITaxon_74649,sepal,http://purl.obolibrary.org/obo/PO_0009031,A,,R. chinensis 'Old Blush' sepals,3,,,
"""beta-phenylethyl acetate""",CHEBI:31988,R. chinensis 'Old Blush',http://purl.obolibrary.org/obo/NCBITaxon_74649,sepal,http://purl.obolibrary.org/obo/PO_0009031,A,,R. chinensis 'Old Blush' sepals,3,,,
"""3,5-dimethoxytoluene""",CHEBI:141217,R. chinensis 'Old Blush',http://purl.obolibrary.org/obo/NCBITaxon_74649,sepal,http://purl.obolibrary.org/obo/PO_0009031,A,,R. chinensis 'Old Blush' sepals,3,,,
"""geranial""",CHEBI:16980,R. chinensis 'Old Blush',http://purl.obolibrary.org/obo/NCBITaxon_74649,sepal,http://purl.obolibrary.org/obo/PO_0009031,A,,R. chinensis 'Old Blush' sepals,3,,,
"""undecanal""",CHEBI:46202,R. chinensis 'Old Blush',http://purl.obolibrary.org/obo/NCBITaxon_74649,sepal,http://purl.obolibrary.org/obo/PO_0009031,A,,R. chinensis 'Old Blush' sepals,3,9.65,,0.76
"""theaspirane A""",CHEBI:89598,R. chinensis 'Old Blush',http://purl.obolibrary.org/obo/NCBITaxon_74649,sepal,http://purl.obolibrary.org/obo/PO_0009031,A,,R. chinensis 'Old Blush' sepals,3,,,
"""(+/-)-beta-citronellyl acetate""",CHEBI:70478,R. chinensis 'Old Blush',http://purl.obolibrary.org/obo/NCBITaxon_74649,sepal,http://purl.obolibrary.org/obo/PO_0009031,A,,R. chinensis 'Old Blush' sepals,3,,,
"""eugenol""",CHEBI:4917,R. chinensis 'Old Blush',http://purl.obolibrary.org/obo/NCBITaxon_74649,sepal,http://purl.obolibrary.org/obo/PO_0009031,A,,R. chinensis 'Old Blush' sepals,3,,,
"""neryl acetate""",CHEBI:141210,R. chinensis 'Old Blush',http://purl.obolibrary.org/obo/NCBITaxon_74649,sepal,http://purl.obolibrary.org/obo/PO_0009031,A,,R. chinensis 'Old Blush' sepals,3,,,
"""alpha-copaene""",CHEBI:10221,R. chinensis 'Old Blush',http://purl.obolibrary.org/obo/NCBITaxon_74649,sepal,http://purl.obolibrary.org/obo/PO_0009031,A,,R. chinensis 'Old Blush' sepals,3,,,
"""geranyl acetate""",CHEBI:5331,R. chinensis 'Old Blush',http://purl.obolibrary.org/obo/NCBITaxon_74649,sepal,http://purl.obolibrary.org/obo/PO_0009031,A,,R. chinensis 'Old Blush' sepals,3,,,
"""beta-elemene""",CHEBI:62855,R. chinensis 'Old Blush',http://purl.obolibrary.org/obo/NCBITaxon_74649,sepal,http://purl.obolibrary.org/obo/PO_0009031,A,,R. chinensis 'Old Blush' sepals,3,1.46,,0.87
"""methyl eugenol""",CHEBI:14469,R. chinensis 'Old Blush',http://purl.obolibrary.org/obo/NCBITaxon_74649,sepal,http://purl.obolibrary.org/obo/PO_0009031,A,,R. chinensis 'Old Blush' sepals,3,,,
"""(E)-beta-caryophyllene""",CHEBI:10357,R. chinensis 'Old Blush',http://purl.obolibrary.org/obo/NCBITaxon_74649,sepal,http://purl.obolibrary.org/obo/PO_0009031,A,,R. chinensis 'Old Blush' sepals,3,,,
"""1,3,5-trimethoxybenzene""",CHEBI:31038,R. chinensis 'Old Blush',http://purl.obolibrary.org/obo/NCBITaxon_74649,sepal,http://purl.obolibrary.org/obo/PO_0009031,A,,R. chinensis 'Old Blush' sepals,3,11.37,,1.59
"""dihydro-beta-ionone""",CHEBI:18015,R. chinensis 'Old Blush',http://purl.obolibrary.org/obo/NCBITaxon_74649,sepal,http://purl.obolibrary.org/obo/PO_0009031,A,,R. chinensis 'Old Blush' sepals,3,,,
"""alpha guaiene""",CHEBI:63443,R. chinensis 'Old Blush',http://purl.obolibrary.org/obo/NCBITaxon_74649,sepal,http://purl.obolibrary.org/obo/PO_0009031,A,,R. chinensis 'Old Blush' sepals,3,1.46,,0.76
"""dihydro-beta-ionol""",,R. chinensis 'Old Blush',http://purl.obolibrary.org/obo/NCBITaxon_74649,sepal,http://purl.obolibrary.org/obo/PO_0009031,A,,R. chinensis 'Old Blush' sepals,3,,,
"""(E)-beta-farnesene""",CHEBI:10418,R. chinensis 'Old Blush',http://purl.obolibrary.org/obo/NCBITaxon_74649,sepal,http://purl.obolibrary.org/obo/PO_0009031,A,,R. chinensis 'Old Blush' sepals,3,,,
"""germacrene D""",CHEBI:49045,R. chinensis 'Old Blush',http://purl.obolibrary.org/obo/NCBITaxon_74649,sepal,http://purl.obolibrary.org/obo/PO_0009031,A,,R. chinensis 'Old Blush' sepals,3,,,
"""pentadecane""",CHEBI:28897,R. chinensis 'Old Blush',http://purl.obolibrary.org/obo/NCBITaxon_74649,sepal,http://purl.obolibrary.org/obo/PO_0009031,A,,R. chinensis 'Old Blush' sepals,3,,,
"""(E,E)-alpha-farnesene""",CHEBI:10280,R. chinensis 'Old Blush',http://purl.obolibrary.org/obo/NCBITaxon_74649,sepal,http://purl.obolibrary.org/obo/PO_0009031,A,,R. chinensis 'Old Blush' sepals,3,,,
"""gamma-cadinene""",CHEBI:63205,R. chinensis 'Old Blush',http://purl.obolibrary.org/obo/NCBITaxon_74649,sepal,http://purl.obolibrary.org/obo/PO_0009031,A,,R. chinensis 'Old Blush' sepals,3,,,
"""delta-cadinene""",CHEBI:140564,R. chinensis 'Old Blush',http://purl.obolibrary.org/obo/NCBITaxon_74649,sepal,http://purl.obolibrary.org/obo/PO_0009031,A,,R. chinensis 'Old Blush' sepals,3,,,
"""elemol""",CHEBI:141221,R. chinensis 'Old Blush',http://purl.obolibrary.org/obo/NCBITaxon_74649,sepal,http://purl.obolibrary.org/obo/PO_0009031,A,,R. chinensis 'Old Blush' sepals,3,,,
"""Germacrene D 4 ol""",CHEBI:141218,R. chinensis 'Old Blush',http://purl.obolibrary.org/obo/NCBITaxon_74649,sepal,http://purl.obolibrary.org/obo/PO_0009031,A,,R. chinensis 'Old Blush' sepals,3,,,
"""hexadecane""",CHEBI:45296,R. chinensis 'Old Blush',http://purl.obolibrary.org/obo/NCBITaxon_74649,sepal,http://purl.obolibrary.org/obo/PO_0009031,A,,R. chinensis 'Old Blush' sepals,3,,,
"""Tau-cadinol""",CHEBI:138042,R. chinensis 'Old Blush',http://purl.obolibrary.org/obo/NCBITaxon_74649,sepal,http://purl.obolibrary.org/obo/PO_0009031,A,,R. chinensis 'Old Blush' sepals,3,,,
"""beta-eudesmol""",CHEBI:10417,R. chinensis 'Old Blush',http://purl.obolibrary.org/obo/NCBITaxon_74649,sepal,http://purl.obolibrary.org/obo/PO_0009031,A,,R. chinensis 'Old Blush' sepals,3,,,
"""alpha-cadinol""",CHEBI:132905,R. chinensis 'Old Blush',http://purl.obolibrary.org/obo/NCBITaxon_74649,sepal,http://purl.obolibrary.org/obo/PO_0009031,A,,R. chinensis 'Old Blush' sepals,3,1.04,,0.52
"""heptadecene""",CHEBI:64502,R. chinensis 'Old Blush',http://purl.obolibrary.org/obo/NCBITaxon_74649,sepal,http://purl.obolibrary.org/obo/PO_0009031,A,,R. chinensis 'Old Blush' sepals,3,,,
"""heptadecane""",CHEBI:16148,R. chinensis 'Old Blush',http://purl.obolibrary.org/obo/NCBITaxon_74649,sepal,http://purl.obolibrary.org/obo/PO_0009031,A,,R. chinensis 'Old Blush' sepals,3,,,
"""(E,E)-farnesol""",CHEBI:16619,R. chinensis 'Old Blush',http://purl.obolibrary.org/obo/NCBITaxon_74649,sepal,http://purl.obolibrary.org/obo/PO_0009031,A,,R. chinensis 'Old Blush' sepals,3,,,
"""(E,E)-farnesal""",CHEBI:15894,R. chinensis 'Old Blush',http://purl.obolibrary.org/obo/NCBITaxon_74649,sepal,http://purl.obolibrary.org/obo/PO_0009031,A,,R. chinensis 'Old Blush' sepals,3,,,
"""(E,E)-farnesyl acetate""",,R. chinensis 'Old Blush',http://purl.obolibrary.org/obo/NCBITaxon_74649,sepal,http://purl.obolibrary.org/obo/PO_0009031,A,,R. chinensis 'Old Blush' sepals,3,,,
"""hexan-2-ol""",CHEBI:88370,R. chinensis 'Old Blush',http://purl.obolibrary.org/obo/NCBITaxon_74649,stamen,http://purl.obolibrary.org/obo/PO_0009029,A,,R. chinensis 'Old Blush' stamens,3,,,
"""hexanal""",CHEBI:88528,R. chinensis 'Old Blush',http://purl.obolibrary.org/obo/NCBITaxon_74649,stamen,http://purl.obolibrary.org/obo/PO_0009029,A,,R. chinensis 'Old Blush' stamens,3,0.9,,0.46
"""(E)-2-hexenal""",CHEBI:28913,R. chinensis 'Old Blush',http://purl.obolibrary.org/obo/NCBITaxon_74649,stamen,http://purl.obolibrary.org/obo/PO_0009029,A,,R. chinensis 'Old Blush' stamens,3,9.41,,1.23
"""(Z)-3-hexen-1-ol""",CHEBI:28857,R. chinensis 'Old Blush',http://purl.obolibrary.org/obo/NCBITaxon_74649,stamen,http://purl.obolibrary.org/obo/PO_0009029,A,,R. chinensis 'Old Blush' stamens,3,5.39,,1.51
"""(E)-2-hexen-1-ol""",CHEBI:141205,R. chinensis 'Old Blush',http://purl.obolibrary.org/obo/NCBITaxon_74649,stamen,http://purl.obolibrary.org/obo/PO_0009029,A,,R. chinensis 'Old Blush' stamens,3,,,
"""hexan-1-ol""",CHEBI:87393,R. chinensis 'Old Blush',http://purl.obolibrary.org/obo/NCBITaxon_74649,stamen,http://purl.obolibrary.org/obo/PO_0009029,A,,R. chinensis 'Old Blush' stamens,3,,,
"""nonane""",CHEBI:32892,R. chinensis 'Old Blush',http://purl.obolibrary.org/obo/NCBITaxon_74649,stamen,http://purl.obolibrary.org/obo/PO_0009029,A,,R. chinensis 'Old Blush' stamens,3,,,
"""alpha-pinene""",CHEBI:36740,R. chinensis 'Old Blush',http://purl.obolibrary.org/obo/NCBITaxon_74649,stamen,http://purl.obolibrary.org/obo/PO_0009029,A,,R. chinensis 'Old Blush' stamens,3,,,
"""benzaldehyde""",CHEBI:17169,R. chinensis 'Old Blush',http://purl.obolibrary.org/obo/NCBITaxon_74649,stamen,http://purl.obolibrary.org/obo/PO_0009029,A,,R. chinensis 'Old Blush' stamens,3,,,
"""beta-myrcene""",CHEBI:17221,R. chinensis 'Old Blush',http://purl.obolibrary.org/obo/NCBITaxon_74649,stamen,http://purl.obolibrary.org/obo/PO_0009029,A,,R. chinensis 'Old Blush' stamens,3,,,
"""(Z)-3-hexenyl acetate""",CHEBI:61316,R. chinensis 'Old Blush',http://purl.obolibrary.org/obo/NCBITaxon_74649,stamen,http://purl.obolibrary.org/obo/PO_0009029,A,,R. chinensis 'Old Blush' stamens,3,45.92,,5.23
"""hexyl acetate""",CHEBI:87510,R. chinensis 'Old Blush',http://purl.obolibrary.org/obo/NCBITaxon_74649,stamen,http://purl.obolibrary.org/obo/PO_0009029,A,,R. chinensis 'Old Blush' stamens,3,,,
"""(E)-hexenyl acetate""",CHEBI:141209,R. chinensis 'Old Blush',http://purl.obolibrary.org/obo/NCBITaxon_74649,stamen,http://purl.obolibrary.org/obo/PO_0009029,A,,R. chinensis 'Old Blush' stamens,3,2.02,,1.05
"""(+/-)-limonene""",CHEBI:15384,R. chinensis 'Old Blush',http://purl.obolibrary.org/obo/NCBITaxon_74649,stamen,http://purl.obolibrary.org/obo/PO_0009029,A,,R. chinensis 'Old Blush' stamens,3,,,
"""benzylalcohol""",CHEBI:17987,R. chinensis 'Old Blush',http://purl.obolibrary.org/obo/NCBITaxon_74649,stamen,http://purl.obolibrary.org/obo/PO_0009029,A,,R. chinensis 'Old Blush' stamens,3,,,
"""phenylacetaldehyde""",CHEBI:16424,R. chinensis 'Old Blush',http://purl.obolibrary.org/obo/NCBITaxon_74649,stamen,http://purl.obolibrary.org/obo/PO_0009029,A,,R. chinensis 'Old Blush' stamens,3,,,
"""(E)-beta-ocimene""",CHEBI:64280,R. chinensis 'Old Blush',http://purl.obolibrary.org/obo/NCBITaxon_74649,stamen,http://purl.obolibrary.org/obo/PO_0009029,A,,R. chinensis 'Old Blush' stamens,3,,,
"""(+/-)-linalool""",CHEBI:17580,R. chinensis 'Old Blush',http://purl.obolibrary.org/obo/NCBITaxon_74649,stamen,http://purl.obolibrary.org/obo/PO_0009029,A,,R. chinensis 'Old Blush' stamens,3,0.29,,0.29
"""nonanal""",CHEBI:84268,R. chinensis 'Old Blush',http://purl.obolibrary.org/obo/NCBITaxon_74649,stamen,http://purl.obolibrary.org/obo/PO_0009029,A,,R. chinensis 'Old Blush' stamens,3,,,
"""2-phenylethanol""",CHEBI:49000,R. chinensis 'Old Blush',http://purl.obolibrary.org/obo/NCBITaxon_74649,stamen,http://purl.obolibrary.org/obo/PO_0009029,A,,R. chinensis 'Old Blush' stamens,3,0.26,,0.26
"""(+/-)-beta-citronellal""",CHEBI:47856,R. chinensis 'Old Blush',http://purl.obolibrary.org/obo/NCBITaxon_74649,stamen,http://purl.obolibrary.org/obo/PO_0009029,A,,R. chinensis 'Old Blush' stamens,3,,,
"""(+/-)-alpha-terpineol""",CHEBI:22469,R. chinensis 'Old Blush',http://purl.obolibrary.org/obo/NCBITaxon_74649,stamen,http://purl.obolibrary.org/obo/PO_0009029,A,,R. chinensis 'Old Blush' stamens,3,,,
"""decanal""",CHEBI:31457,R. chinensis 'Old Blush',http://purl.obolibrary.org/obo/NCBITaxon_74649,stamen,http://purl.obolibrary.org/obo/PO_0009029,A,,R. chinensis 'Old Blush' stamens,3,,,
"""nerol""",CHEBI:29452,R. chinensis 'Old Blush',http://purl.obolibrary.org/obo/NCBITaxon_74649,stamen,http://purl.obolibrary.org/obo/PO_0009029,A,,R. chinensis 'Old Blush' stamens,3,,,
"""(+/-)-beta-citronellol""",CHEBI:50462,R. chinensis 'Old Blush',http://purl.obolibrary.org/obo/NCBITaxon_74649,stamen,http://purl.obolibrary.org/obo/PO_0009029,A,,R. chinensis 'Old Blush' stamens,3,1.23,,1.23
"""neral""",CHEBI:29020,R. chinensis 'Old Blush',http://purl.obolibrary.org/obo/NCBITaxon_74649,stamen,http://purl.obolibrary.org/obo/PO_0009029,A,,R. chinensis 'Old Blush' stamens,3,,,
"""geraniol""",CHEBI:17447,R. chinensis 'Old Blush',http://purl.obolibrary.org/obo/NCBITaxon_74649,stamen,http://purl.obolibrary.org/obo/PO_0009029,A,,R. chinensis 'Old Blush' stamens,3,8.87,,0.69
"""beta-phenylethyl acetate""",CHEBI:31988,R. chinensis 'Old Blush',http://purl.obolibrary.org/obo/NCBITaxon_74649,stamen,http://purl.obolibrary.org/obo/PO_0009029,A,,R. chinensis 'Old Blush' stamens,3,,,
"""3,5-dimethoxytoluene""",CHEBI:141217,R. chinensis 'Old Blush',http://purl.obolibrary.org/obo/NCBITaxon_74649,stamen,http://purl.obolibrary.org/obo/PO_0009029,A,,R. chinensis 'Old Blush' stamens,3,,,
"""geranial""",CHEBI:16980,R. chinensis 'Old Blush',http://purl.obolibrary.org/obo/NCBITaxon_74649,stamen,http://purl.obolibrary.org/obo/PO_0009029,A,,R. chinensis 'Old Blush' stamens,3,3.46,,0.36
"""undecanal""",CHEBI:46202,R. chinensis 'Old Blush',http://purl.obolibrary.org/obo/NCBITaxon_74649,stamen,http://purl.obolibrary.org/obo/PO_0009029,A,,R. chinensis 'Old Blush' stamens,3,,,
"""theaspirane A""",CHEBI:89598,R. chinensis 'Old Blush',http://purl.obolibrary.org/obo/NCBITaxon_74649,stamen,http://purl.obolibrary.org/obo/PO_0009029,A,,R. chinensis 'Old Blush' stamens,3,,,
"""(+/-)-beta-citronellyl acetate""",CHEBI:70478,R. chinensis 'Old Blush',http://purl.obolibrary.org/obo/NCBITaxon_74649,stamen,http://purl.obolibrary.org/obo/PO_0009029,A,,R. chinensis 'Old Blush' stamens,3,,,
"""eugenol""",CHEBI:4917,R. chinensis 'Old Blush',http://purl.obolibrary.org/obo/NCBITaxon_74649,stamen,http://purl.obolibrary.org/obo/PO_0009029,A,,R. chinensis 'Old Blush' stamens,3,,,
"""neryl acetate""",CHEBI:141210,R. chinensis 'Old Blush',http://purl.obolibrary.org/obo/NCBITaxon_74649,stamen,http://purl.obolibrary.org/obo/PO_0009029,A,,R. chinensis 'Old Blush' stamens,3,,,
"""alpha-copaene""",CHEBI:10221,R. chinensis 'Old Blush',http://purl.obolibrary.org/obo/NCBITaxon_74649,stamen,http://purl.obolibrary.org/obo/PO_0009029,A,,R. chinensis 'Old Blush' stamens,3,1.13,,0.32
"""geranyl acetate""",CHEBI:5331,R. chinensis 'Old Blush',http://purl.obolibrary.org/obo/NCBITaxon_74649,stamen,http://purl.obolibrary.org/obo/PO_0009029,A,,R. chinensis 'Old Blush' stamens,3,0.22,,0.22
"""beta-elemene""",CHEBI:62855,R. chinensis 'Old Blush',http://purl.obolibrary.org/obo/NCBITaxon_74649,stamen,http://purl.obolibrary.org/obo/PO_0009029,A,,R. chinensis 'Old Blush' stamens,3,0.29,,0.29
"""methyl eugenol""",CHEBI:14469,R. chinensis 'Old Blush',http://purl.obolibrary.org/obo/NCBITaxon_74649,stamen,http://purl.obolibrary.org/obo/PO_0009029,A,,R. chinensis 'Old Blush' stamens,3,,,
"""(E)-beta-caryophyllene""",CHEBI:10357,R. chinensis 'Old Blush',http://purl.obolibrary.org/obo/NCBITaxon_74649,stamen,http://purl.obolibrary.org/obo/PO_0009029,A,,R. chinensis 'Old Blush' stamens,3,,,
"""1,3,5-trimethoxybenzene""",CHEBI:31038,R. chinensis 'Old Blush',http://purl.obolibrary.org/obo/NCBITaxon_74649,stamen,http://purl.obolibrary.org/obo/PO_0009029,A,,R. chinensis 'Old Blush' stamens,3,165.12,,14.1
"""dihydro-beta-ionone""",CHEBI:18015,R. chinensis 'Old Blush',http://purl.obolibrary.org/obo/NCBITaxon_74649,stamen,http://purl.obolibrary.org/obo/PO_0009029,A,,R. chinensis 'Old Blush' stamens,3,1.51,,0.24
"""alpha guaiene""",CHEBI:63443,R. chinensis 'Old Blush',http://purl.obolibrary.org/obo/NCBITaxon_74649,stamen,http://purl.obolibrary.org/obo/PO_0009029,A,,R. chinensis 'Old Blush' stamens,3,,,
"""dihydro-beta-ionol""",,R. chinensis 'Old Blush',http://purl.obolibrary.org/obo/NCBITaxon_74649,stamen,http://purl.obolibrary.org/obo/PO_0009029,A,,R. chinensis 'Old Blush' stamens,3,35.83,,3.42
"""(E)-beta-farnesene""",CHEBI:10418,R. chinensis 'Old Blush',http://purl.obolibrary.org/obo/NCBITaxon_74649,stamen,http://purl.obolibrary.org/obo/PO_0009029,A,,R. chinensis 'Old Blush' stamens,3,,,
"""germacrene D""",CHEBI:49045,R. chinensis 'Old Blush',http://purl.obolibrary.org/obo/NCBITaxon_74649,stamen,http://purl.obolibrary.org/obo/PO_0009029,A,,R. chinensis 'Old Blush' stamens,3,57.5,,5.03
"""pentadecane""",CHEBI:28897,R. chinensis 'Old Blush',http://purl.obolibrary.org/obo/NCBITaxon_74649,stamen,http://purl.obolibrary.org/obo/PO_0009029,A,,R. chinensis 'Old Blush' stamens,3,,,
"""(E,E)-alpha-farnesene""",CHEBI:10280,R. chinensis 'Old Blush',http://purl.obolibrary.org/obo/NCBITaxon_74649,stamen,http://purl.obolibrary.org/obo/PO_0009029,A,,R. chinensis 'Old Blush' stamens,3,,,
"""gamma-cadinene""",CHEBI:63205,R. chinensis 'Old Blush',http://purl.obolibrary.org/obo/NCBITaxon_74649,stamen,http://purl.obolibrary.org/obo/PO_0009029,A,,R. chinensis 'Old Blush' stamens,3,,,
"""delta-cadinene""",CHEBI:140564,R. chinensis 'Old Blush',http://purl.obolibrary.org/obo/NCBITaxon_74649,stamen,http://purl.obolibrary.org/obo/PO_0009029,A,,R. chinensis 'Old Blush' stamens,3,6.14,,0.82
"""elemol""",CHEBI:141221,R. chinensis 'Old Blush',http://purl.obolibrary.org/obo/NCBITaxon_74649,stamen,http://purl.obolibrary.org/obo/PO_0009029,A,,R. chinensis 'Old Blush' stamens,3,,,
"""Germacrene D 4 ol""",CHEBI:141218,R. chinensis 'Old Blush',http://purl.obolibrary.org/obo/NCBITaxon_74649,stamen,http://purl.obolibrary.org/obo/PO_0009029,A,,R. chinensis 'Old Blush' stamens,3,1.32,,0.22
"""hexadecane""",CHEBI:45296,R. chinensis 'Old Blush',http://purl.obolibrary.org/obo/NCBITaxon_74649,stamen,http://purl.obolibrary.org/obo/PO_0009029,A,,R. chinensis 'Old Blush' stamens,3,,,
"""Tau-cadinol""",CHEBI:138042,R. chinensis 'Old Blush',http://purl.obolibrary.org/obo/NCBITaxon_74649,stamen,http://purl.obolibrary.org/obo/PO_0009029,A,,R. chinensis 'Old Blush' stamens,3,3.45,,0.23
"""beta-eudesmol""",CHEBI:10417,R. chinensis 'Old Blush',http://purl.obolibrary.org/obo/NCBITaxon_74649,stamen,http://purl.obolibrary.org/obo/PO_0009029,A,,R. chinensis 'Old Blush' stamens,3,,,
"""alpha-cadinol""",CHEBI:132905,R. chinensis 'Old Blush',http://purl.obolibrary.org/obo/NCBITaxon_74649,stamen,http://purl.obolibrary.org/obo/PO_0009029,A,,R. chinensis 'Old Blush' stamens,3,1.47,,0.11
"""heptadecene""",CHEBI:64502,R. chinensis 'Old Blush',http://purl.obolibrary.org/obo/NCBITaxon_74649,stamen,http://purl.obolibrary.org/obo/PO_0009029,A,,R. chinensis 'Old Blush' stamens,3,2.35,,0.14
"""heptadecane""",CHEBI:16148,R. chinensis 'Old Blush',http://purl.obolibrary.org/obo/NCBITaxon_74649,stamen,http://purl.obolibrary.org/obo/PO_0009029,A,,R. chinensis 'Old Blush' stamens,3,3.19,,0.03
"""(E,E)-farnesol""",CHEBI:16619,R. chinensis 'Old Blush',http://purl.obolibrary.org/obo/NCBITaxon_74649,stamen,http://purl.obolibrary.org/obo/PO_0009029,A,,R. chinensis 'Old Blush' stamens,3,,,
"""(E,E)-farnesal""",CHEBI:15894,R. chinensis 'Old Blush',http://purl.obolibrary.org/obo/NCBITaxon_74649,stamen,http://purl.obolibrary.org/obo/PO_0009029,A,,R. chinensis 'Old Blush' stamens,3,,,
"""(E,E)-farnesyl acetate""",,R. chinensis 'Old Blush',http://purl.obolibrary.org/obo/NCBITaxon_74649,stamen,http://purl.obolibrary.org/obo/PO_0009029,A,,R. chinensis 'Old Blush' stamens,3,,,
"""hexan-2-ol""",CHEBI:88370,R. chinensis 'Old Blush',http://purl.obolibrary.org/obo/NCBITaxon_74649,petal,http://purl.obolibrary.org/obo/PO_0009032,A,,R. chinensis 'Old Blush' petals,3,,,
"""hexanal""",CHEBI:88528,R. chinensis 'Old Blush',http://purl.obolibrary.org/obo/NCBITaxon_74649,petal,http://purl.obolibrary.org/obo/PO_0009032,A,,R. chinensis 'Old Blush' petals,3,1.59,,0.22
"""(E)-2-hexenal""",CHEBI:28913,R. chinensis 'Old Blush',http://purl.obolibrary.org/obo/NCBITaxon_74649,petal,http://purl.obolibrary.org/obo/PO_0009032,A,,R. chinensis 'Old Blush' petals,3,28.26,,4.93
"""(Z)-3-hexen-1-ol""",CHEBI:28857,R. chinensis 'Old Blush',http://purl.obolibrary.org/obo/NCBITaxon_74649,petal,http://purl.obolibrary.org/obo/PO_0009032,A,,R. chinensis 'Old Blush' petals,3,15.15,,2.26
"""(E)-2-hexen-1-ol""",CHEBI:141205,R. chinensis 'Old Blush',http://purl.obolibrary.org/obo/NCBITaxon_74649,petal,http://purl.obolibrary.org/obo/PO_0009032,A,,R. chinensis 'Old Blush' petals,3,6.12,,0.88
"""hexan-1-ol""",CHEBI:87393,R. chinensis 'Old Blush',http://purl.obolibrary.org/obo/NCBITaxon_74649,petal,http://purl.obolibrary.org/obo/PO_0009032,A,,R. chinensis 'Old Blush' petals,3,3.12,,0.38
"""nonane""",CHEBI:32892,R. chinensis 'Old Blush',http://purl.obolibrary.org/obo/NCBITaxon_74649,petal,http://purl.obolibrary.org/obo/PO_0009032,A,,R. chinensis 'Old Blush' petals,3,,,
"""alpha-pinene""",CHEBI:36740,R. chinensis 'Old Blush',http://purl.obolibrary.org/obo/NCBITaxon_74649,petal,http://purl.obolibrary.org/obo/PO_0009032,A,,R. chinensis 'Old Blush' petals,3,,,
"""benzaldehyde""",CHEBI:17169,R. chinensis 'Old Blush',http://purl.obolibrary.org/obo/NCBITaxon_74649,petal,http://purl.obolibrary.org/obo/PO_0009032,A,,R. chinensis 'Old Blush' petals,3,,,
"""beta-myrcene""",CHEBI:17221,R. chinensis 'Old Blush',http://purl.obolibrary.org/obo/NCBITaxon_74649,petal,http://purl.obolibrary.org/obo/PO_0009032,A,,R. chinensis 'Old Blush' petals,3,1.05,,0.25
"""(Z)-3-hexenyl acetate""",CHEBI:61316,R. chinensis 'Old Blush',http://purl.obolibrary.org/obo/NCBITaxon_74649,petal,http://purl.obolibrary.org/obo/PO_0009032,A,,R. chinensis 'Old Blush' petals,3,32.34,,5.97
"""hexyl acetate""",CHEBI:87510,R. chinensis 'Old Blush',http://purl.obolibrary.org/obo/NCBITaxon_74649,petal,http://purl.obolibrary.org/obo/PO_0009032,A,,R. chinensis 'Old Blush' petals,3,0.73,,0.11
"""(E)-hexenyl acetate""",CHEBI:141209,R. chinensis 'Old Blush',http://purl.obolibrary.org/obo/NCBITaxon_74649,petal,http://purl.obolibrary.org/obo/PO_0009032,A,,R. chinensis 'Old Blush' petals,3,0.97,,0.25
"""(+/-)-limonene""",CHEBI:15384,R. chinensis 'Old Blush',http://purl.obolibrary.org/obo/NCBITaxon_74649,petal,http://purl.obolibrary.org/obo/PO_0009032,A,,R. chinensis 'Old Blush' petals,3,,,
"""benzylalcohol""",CHEBI:17987,R. chinensis 'Old Blush',http://purl.obolibrary.org/obo/NCBITaxon_74649,petal,http://purl.obolibrary.org/obo/PO_0009032,A,,R. chinensis 'Old Blush' petals,3,,,
"""phenylacetaldehyde""",CHEBI:16424,R. chinensis 'Old Blush',http://purl.obolibrary.org/obo/NCBITaxon_74649,petal,http://purl.obolibrary.org/obo/PO_0009032,A,,R. chinensis 'Old Blush' petals,3,,,
"""(E)-beta-ocimene""",CHEBI:64280,R. chinensis 'Old Blush',http://purl.obolibrary.org/obo/NCBITaxon_74649,petal,http://purl.obolibrary.org/obo/PO_0009032,A,,R. chinensis 'Old Blush' petals,3,,,
"""(+/-)-linalool""",CHEBI:17580,R. chinensis 'Old Blush',http://purl.obolibrary.org/obo/NCBITaxon_74649,petal,http://purl.obolibrary.org/obo/PO_0009032,A,,R. chinensis 'Old Blush' petals,3,,,
"""nonanal""",CHEBI:84268,R. chinensis 'Old Blush',http://purl.obolibrary.org/obo/NCBITaxon_74649,petal,http://purl.obolibrary.org/obo/PO_0009032,A,,R. chinensis 'Old Blush' petals,3,0.26,,0.26
"""2-phenylethanol""",CHEBI:49000,R. chinensis 'Old Blush',http://purl.obolibrary.org/obo/NCBITaxon_74649,petal,http://purl.obolibrary.org/obo/PO_0009032,A,,R. chinensis 'Old Blush' petals,3,,,
"""(+/-)-beta-citronellal""",CHEBI:47856,R. chinensis 'Old Blush',http://purl.obolibrary.org/obo/NCBITaxon_74649,petal,http://purl.obolibrary.org/obo/PO_0009032,A,,R. chinensis 'Old Blush' petals,3,0.26,,0.26
"""(+/-)-alpha-terpineol""",CHEBI:22469,R. chinensis 'Old Blush',http://purl.obolibrary.org/obo/NCBITaxon_74649,petal,http://purl.obolibrary.org/obo/PO_0009032,A,,R. chinensis 'Old Blush' petals,3,,,
"""decanal""",CHEBI:31457,R. chinensis 'Old Blush',http://purl.obolibrary.org/obo/NCBITaxon_74649,petal,http://purl.obolibrary.org/obo/PO_0009032,A,,R. chinensis 'Old Blush' petals,3,,,
"""nerol""",CHEBI:29452,R. chinensis 'Old Blush',http://purl.obolibrary.org/obo/NCBITaxon_74649,petal,http://purl.obolibrary.org/obo/PO_0009032,A,,R. chinensis 'Old Blush' petals,3,,,
"""(+/-)-beta-citronellol""",CHEBI:50462,R. chinensis 'Old Blush',http://purl.obolibrary.org/obo/NCBITaxon_74649,petal,http://purl.obolibrary.org/obo/PO_0009032,A,,R. chinensis 'Old Blush' petals,3,0.97,,0.97
"""neral""",CHEBI:29020,R. chinensis 'Old Blush',http://purl.obolibrary.org/obo/NCBITaxon_74649,petal,http://purl.obolibrary.org/obo/PO_0009032,A,,R. chinensis 'Old Blush' petals,3,0.68,,0.68
"""geraniol""",CHEBI:17447,R. chinensis 'Old Blush',http://purl.obolibrary.org/obo/NCBITaxon_74649,petal,http://purl.obolibrary.org/obo/PO_0009032,A,,R. chinensis 'Old Blush' petals,3,89.73,,5.9
"""beta-phenylethyl acetate""",CHEBI:31988,R. chinensis 'Old Blush',http://purl.obolibrary.org/obo/NCBITaxon_74649,petal,http://purl.obolibrary.org/obo/PO_0009032,A,,R. chinensis 'Old Blush' petals,3,,,
"""3,5-dimethoxytoluene""",CHEBI:141217,R. chinensis 'Old Blush',http://purl.obolibrary.org/obo/NCBITaxon_74649,petal,http://purl.obolibrary.org/obo/PO_0009032,A,,R. chinensis 'Old Blush' petals,3,,,
"""geranial""",CHEBI:16980,R. chinensis 'Old Blush',http://purl.obolibrary.org/obo/NCBITaxon_74649,petal,http://purl.obolibrary.org/obo/PO_0009032,A,,R. chinensis 'Old Blush' petals,3,28.34,,4.14
"""undecanal""",CHEBI:46202,R. chinensis 'Old Blush',http://purl.obolibrary.org/obo/NCBITaxon_74649,petal,http://purl.obolibrary.org/obo/PO_0009032,A,,R. chinensis 'Old Blush' petals,3,,,
"""theaspirane A""",CHEBI:89598,R. chinensis 'Old Blush',http://purl.obolibrary.org/obo/NCBITaxon_74649,petal,http://purl.obolibrary.org/obo/PO_0009032,A,,R. chinensis 'Old Blush' petals,3,,,
"""(+/-)-beta-citronellyl acetate""",CHEBI:70478,R. chinensis 'Old Blush',http://purl.obolibrary.org/obo/NCBITaxon_74649,petal,http://purl.obolibrary.org/obo/PO_0009032,A,,R. chinensis 'Old Blush' petals,3,,,
"""eugenol""",CHEBI:4917,R. chinensis 'Old Blush',http://purl.obolibrary.org/obo/NCBITaxon_74649,petal,http://purl.obolibrary.org/obo/PO_0009032,A,,R. chinensis 'Old Blush' petals,3,,,
"""neryl acetate""",CHEBI:141210,R. chinensis 'Old Blush',http://purl.obolibrary.org/obo/NCBITaxon_74649,petal,http://purl.obolibrary.org/obo/PO_0009032,A,,R. chinensis 'Old Blush' petals,3,,,
"""alpha-copaene""",CHEBI:10221,R. chinensis 'Old Blush',http://purl.obolibrary.org/obo/NCBITaxon_74649,petal,http://purl.obolibrary.org/obo/PO_0009032,A,,R. chinensis 'Old Blush' petals,3,,,
"""geranyl acetate""",CHEBI:5331,R. chinensis 'Old Blush',http://purl.obolibrary.org/obo/NCBITaxon_74649,petal,http://purl.obolibrary.org/obo/PO_0009032,A,,R. chinensis 'Old Blush' petals,3,2.6,,1.49
"""beta-elemene""",CHEBI:62855,R. chinensis 'Old Blush',http://purl.obolibrary.org/obo/NCBITaxon_74649,petal,http://purl.obolibrary.org/obo/PO_0009032,A,,R. chinensis 'Old Blush' petals,3,0.27,,0.27
"""methyl eugenol""",CHEBI:14469,R. chinensis 'Old Blush',http://purl.obolibrary.org/obo/NCBITaxon_74649,petal,http://purl.obolibrary.org/obo/PO_0009032,A,,R. chinensis 'Old Blush' petals,3,,,
"""(E)-beta-caryophyllene""",CHEBI:10357,R. chinensis 'Old Blush',http://purl.obolibrary.org/obo/NCBITaxon_74649,petal,http://purl.obolibrary.org/obo/PO_0009032,A,,R. chinensis 'Old Blush' petals,3,,,
"""1,3,5-trimethoxybenzene""",CHEBI:31038,R. chinensis 'Old Blush',http://purl.obolibrary.org/obo/NCBITaxon_74649,petal,http://purl.obolibrary.org/obo/PO_0009032,A,,R. chinensis 'Old Blush' petals,3,19.66,,4.88
"""dihydro-beta-ionone""",CHEBI:18015,R. chinensis 'Old Blush',http://purl.obolibrary.org/obo/NCBITaxon_74649,petal,http://purl.obolibrary.org/obo/PO_0009032,A,,R. chinensis 'Old Blush' petals,3,,,
"""alpha guaiene""",CHEBI:63443,R. chinensis 'Old Blush',http://purl.obolibrary.org/obo/NCBITaxon_74649,petal,http://purl.obolibrary.org/obo/PO_0009032,A,,R. chinensis 'Old Blush' petals,3,,,
"""dihydro-beta-ionol""",,R. chinensis 'Old Blush',http://purl.obolibrary.org/obo/NCBITaxon_74649,petal,http://purl.obolibrary.org/obo/PO_0009032,A,,R. chinensis 'Old Blush' petals,3,11.05,,0.62
"""(E)-beta-farnesene""",CHEBI:10418,R. chinensis 'Old Blush',http://purl.obolibrary.org/obo/NCBITaxon_74649,petal,http://purl.obolibrary.org/obo/PO_0009032,A,,R. chinensis 'Old Blush' petals,3,,,
"""germacrene D""",CHEBI:49045,R. chinensis 'Old Blush',http://purl.obolibrary.org/obo/NCBITaxon_74649,petal,http://purl.obolibrary.org/obo/PO_0009032,A,,R. chinensis 'Old Blush' petals,3,9.26,,2.76
"""pentadecane""",CHEBI:28897,R. chinensis 'Old Blush',http://purl.obolibrary.org/obo/NCBITaxon_74649,petal,http://purl.obolibrary.org/obo/PO_0009032,A,,R. chinensis 'Old Blush' petals,3,,,
"""(E,E)-alpha-farnesene""",CHEBI:10280,R. chinensis 'Old Blush',http://purl.obolibrary.org/obo/NCBITaxon_74649,petal,http://purl.obolibrary.org/obo/PO_0009032,A,,R. chinensis 'Old Blush' petals,3,,,
"""gamma-cadinene""",CHEBI:63205,R. chinensis 'Old Blush',http://purl.obolibrary.org/obo/NCBITaxon_74649,petal,http://purl.obolibrary.org/obo/PO_0009032,A,,R. chinensis 'Old Blush' petals,3,0.22,,0.22
"""delta-cadinene""",CHEBI:140564,R. chinensis 'Old Blush',http://purl.obolibrary.org/obo/NCBITaxon_74649,petal,http://purl.obolibrary.org/obo/PO_0009032,A,,R. chinensis 'Old Blush' petals,3,1.26,,0.48
"""elemol""",CHEBI:141221,R. chinensis 'Old Blush',http://purl.obolibrary.org/obo/NCBITaxon_74649,petal,http://purl.obolibrary.org/obo/PO_0009032,A,,R. chinensis 'Old Blush' petals,3,,,
"""Germacrene D 4 ol""",CHEBI:141218,R. chinensis 'Old Blush',http://purl.obolibrary.org/obo/NCBITaxon_74649,petal,http://purl.obolibrary.org/obo/PO_0009032,A,,R. chinensis 'Old Blush' petals,3,0.66,,0.66
"""hexadecane""",CHEBI:45296,R. chinensis 'Old Blush',http://purl.obolibrary.org/obo/NCBITaxon_74649,petal,http://purl.obolibrary.org/obo/PO_0009032,A,,R. chinensis 'Old Blush' petals,3,,,
"""Tau-cadinol""",CHEBI:138042,R. chinensis 'Old Blush',http://purl.obolibrary.org/obo/NCBITaxon_74649,petal,http://purl.obolibrary.org/obo/PO_0009032,A,,R. chinensis 'Old Blush' petals,3,0.41,,0.41
"""beta-eudesmol""",CHEBI:10417,R. chinensis 'Old Blush',http://purl.obolibrary.org/obo/NCBITaxon_74649,petal,http://purl.obolibrary.org/obo/PO_0009032,A,,R. chinensis 'Old Blush' petals,3,,,
"""alpha-cadinol""",CHEBI:132905,R. chinensis 'Old Blush',http://purl.obolibrary.org/obo/NCBITaxon_74649,petal,http://purl.obolibrary.org/obo/PO_0009032,A,,R. chinensis 'Old Blush' petals,3,0.68,,0.14
"""heptadecene""",CHEBI:64502,R. chinensis 'Old Blush',http://purl.obolibrary.org/obo/NCBITaxon_74649,petal,http://purl.obolibrary.org/obo/PO_0009032,A,,R. chinensis 'Old Blush' petals,3,,,
"""heptadecane""",CHEBI:16148,R. chinensis 'Old Blush',http://purl.obolibrary.org/obo/NCBITaxon_74649,petal,http://purl.obolibrary.org/obo/PO_0009032,A,,R. chinensis 'Old Blush' petals,3,0.29,,0.15
"""(E,E)-farnesol""",CHEBI:16619,R. chinensis 'Old Blush',http://purl.obolibrary.org/obo/NCBITaxon_74649,petal,http://purl.obolibrary.org/obo/PO_0009032,A,,R. chinensis 'Old Blush' petals,3,0.43,,0.41
"""(E,E)-farnesal""",CHEBI:15894,R. chinensis 'Old Blush',http://purl.obolibrary.org/obo/NCBITaxon_74649,petal,http://purl.obolibrary.org/obo/PO_0009032,A,,R. chinensis 'Old Blush' petals,3,,,
"""(E,E)-farnesyl acetate""",,R. chinensis 'Old Blush',http://purl.obolibrary.org/obo/NCBITaxon_74649,petal,http://purl.obolibrary.org/obo/PO_0009032,A,,R. chinensis 'Old Blush' petals,3,,,
"""hexan-2-ol""",CHEBI:88370,R. gigantea,http://purl.obolibrary.org/obo/NCBITaxon_74650,petal,http://purl.obolibrary.org/obo/PO_0009032,A,,R. gigantea petals,3,,,
"""hexanal""",CHEBI:88528,R. gigantea,http://purl.obolibrary.org/obo/NCBITaxon_74650,petal,http://purl.obolibrary.org/obo/PO_0009032,A,,R. gigantea petals,3,0.65,,0.03
"""(E)-2-hexenal""",CHEBI:28913,R. gigantea,http://purl.obolibrary.org/obo/NCBITaxon_74650,petal,http://purl.obolibrary.org/obo/PO_0009032,A,,R. gigantea petals,3,1.35,,0.17
"""(Z)-3-hexen-1-ol""",CHEBI:28857,R. gigantea,http://purl.obolibrary.org/obo/NCBITaxon_74650,petal,http://purl.obolibrary.org/obo/PO_0009032,A,,R. gigantea petals,3,,,
"""(E)-2-hexen-1-ol""",CHEBI:141205,R. gigantea,http://purl.obolibrary.org/obo/NCBITaxon_74650,petal,http://purl.obolibrary.org/obo/PO_0009032,A,,R. gigantea petals,3,,,
"""hexan-1-ol""",CHEBI:87393,R. gigantea,http://purl.obolibrary.org/obo/NCBITaxon_74650,petal,http://purl.obolibrary.org/obo/PO_0009032,A,,R. gigantea petals,3,,,
"""nonane""",CHEBI:32892,R. gigantea,http://purl.obolibrary.org/obo/NCBITaxon_74650,petal,http://purl.obolibrary.org/obo/PO_0009032,A,,R. gigantea petals,3,0.48,,0.27
"""alpha-pinene""",CHEBI:36740,R. gigantea,http://purl.obolibrary.org/obo/NCBITaxon_74650,petal,http://purl.obolibrary.org/obo/PO_0009032,A,,R. gigantea petals,3,,,
"""benzaldehyde""",CHEBI:17169,R. gigantea,http://purl.obolibrary.org/obo/NCBITaxon_74650,petal,http://purl.obolibrary.org/obo/PO_0009032,A,,R. gigantea petals,3,,,
"""beta-myrcene""",CHEBI:17221,R. gigantea,http://purl.obolibrary.org/obo/NCBITaxon_74650,petal,http://purl.obolibrary.org/obo/PO_0009032,A,,R. gigantea petals,3,,,
"""(Z)-3-hexenyl acetate""",CHEBI:61316,R. gigantea,http://purl.obolibrary.org/obo/NCBITaxon_74650,petal,http://purl.obolibrary.org/obo/PO_0009032,A,,R. gigantea petals,3,,,
"""hexyl acetate""",CHEBI:87510,R. gigantea,http://purl.obolibrary.org/obo/NCBITaxon_74650,petal,http://purl.obolibrary.org/obo/PO_0009032,A,,R. gigantea petals,3,,,
"""(E)-hexenyl acetate""",CHEBI:141209,R. gigantea,http://purl.obolibrary.org/obo/NCBITaxon_74650,petal,http://purl.obolibrary.org/obo/PO_0009032,A,,R. gigantea petals,3,,,
"""(+/-)-limonene""",CHEBI:15384,R. gigantea,http://purl.obolibrary.org/obo/NCBITaxon_74650,petal,http://purl.obolibrary.org/obo/PO_0009032,A,,R. gigantea petals,3,,,
"""benzylalcohol""",CHEBI:17987,R. gigantea,http://purl.obolibrary.org/obo/NCBITaxon_74650,petal,http://purl.obolibrary.org/obo/PO_0009032,A,,R. gigantea petals,3,,,
"""phenylacetaldehyde""",CHEBI:16424,R. gigantea,http://purl.obolibrary.org/obo/NCBITaxon_74650,petal,http://purl.obolibrary.org/obo/PO_0009032,A,,R. gigantea petals,3,,,
"""(E)-beta-ocimene""",CHEBI:64280,R. gigantea,http://purl.obolibrary.org/obo/NCBITaxon_74650,petal,http://purl.obolibrary.org/obo/PO_0009032,A,,R. gigantea petals,3,,,
"""(+/-)-linalool""",CHEBI:17580,R. gigantea,http://purl.obolibrary.org/obo/NCBITaxon_74650,petal,http://purl.obolibrary.org/obo/PO_0009032,A,,R. gigantea petals,3,,,
"""nonanal""",CHEBI:84268,R. gigantea,http://purl.obolibrary.org/obo/NCBITaxon_74650,petal,http://purl.obolibrary.org/obo/PO_0009032,A,,R. gigantea petals,3,0.93,,0.54
"""2-phenylethanol""",CHEBI:49000,R. gigantea,http://purl.obolibrary.org/obo/NCBITaxon_74650,petal,http://purl.obolibrary.org/obo/PO_0009032,A,,R. gigantea petals,3,,,
"""(+/-)-beta-citronellal""",CHEBI:47856,R. gigantea,http://purl.obolibrary.org/obo/NCBITaxon_74650,petal,http://purl.obolibrary.org/obo/PO_0009032,A,,R. gigantea petals,3,,,
"""(+/-)-alpha-terpineol""",CHEBI:22469,R. gigantea,http://purl.obolibrary.org/obo/NCBITaxon_74650,petal,http://purl.obolibrary.org/obo/PO_0009032,A,,R. gigantea petals,3,,,
"""decanal""",CHEBI:31457,R. gigantea,http://purl.obolibrary.org/obo/NCBITaxon_74650,petal,http://purl.obolibrary.org/obo/PO_0009032,A,,R. gigantea petals,3,2.38,,1.41
"""nerol""",CHEBI:29452,R. gigantea,http://purl.obolibrary.org/obo/NCBITaxon_74650,petal,http://purl.obolibrary.org/obo/PO_0009032,A,,R. gigantea petals,3,,,
"""(+/-)-beta-citronellol""",CHEBI:50462,R. gigantea,http://purl.obolibrary.org/obo/NCBITaxon_74650,petal,http://purl.obolibrary.org/obo/PO_0009032,A,,R. gigantea petals,3,,,
"""neral""",CHEBI:29020,R. gigantea,http://purl.obolibrary.org/obo/NCBITaxon_74650,petal,http://purl.obolibrary.org/obo/PO_0009032,A,,R. gigantea petals,3,,,
"""geraniol""",CHEBI:17447,R. gigantea,http://purl.obolibrary.org/obo/NCBITaxon_74650,petal,http://purl.obolibrary.org/obo/PO_0009032,A,,R. gigantea petals,3,,,
"""beta-phenylethyl acetate""",CHEBI:31988,R. gigantea,http://purl.obolibrary.org/obo/NCBITaxon_74650,petal,http://purl.obolibrary.org/obo/PO_0009032,A,,R. gigantea petals,3,,,
"""3,5-dimethoxytoluene""",CHEBI:141217,R. gigantea,http://purl.obolibrary.org/obo/NCBITaxon_74650,petal,http://purl.obolibrary.org/obo/PO_0009032,A,,R. gigantea petals,3,6.67,,0.26
"""geranial""",CHEBI:16980,R. gigantea,http://purl.obolibrary.org/obo/NCBITaxon_74650,petal,http://purl.obolibrary.org/obo/PO_0009032,A,,R. gigantea petals,3,,,
"""undecanal""",CHEBI:46202,R. gigantea,http://purl.obolibrary.org/obo/NCBITaxon_74650,petal,http://purl.obolibrary.org/obo/PO_0009032,A,,R. gigantea petals,3,,,
"""theaspirane A""",CHEBI:89598,R. gigantea,http://purl.obolibrary.org/obo/NCBITaxon_74650,petal,http://purl.obolibrary.org/obo/PO_0009032,A,,R. gigantea petals,3,1,,0.07
"""(+/-)-beta-citronellyl acetate""",CHEBI:70478,R. gigantea,http://purl.obolibrary.org/obo/NCBITaxon_74650,petal,http://purl.obolibrary.org/obo/PO_0009032,A,,R. gigantea petals,3,,,
"""eugenol""",CHEBI:4917,R. gigantea,http://purl.obolibrary.org/obo/NCBITaxon_74650,petal,http://purl.obolibrary.org/obo/PO_0009032,A,,R. gigantea petals,3,20.65,,5.92
"""neryl acetate""",CHEBI:141210,R. gigantea,http://purl.obolibrary.org/obo/NCBITaxon_74650,petal,http://purl.obolibrary.org/obo/PO_0009032,A,,R. gigantea petals,3,,,
"""alpha-copaene""",CHEBI:10221,R. gigantea,http://purl.obolibrary.org/obo/NCBITaxon_74650,petal,http://purl.obolibrary.org/obo/PO_0009032,A,,R. gigantea petals,3,,,
"""geranyl acetate""",CHEBI:5331,R. gigantea,http://purl.obolibrary.org/obo/NCBITaxon_74650,petal,http://purl.obolibrary.org/obo/PO_0009032,A,,R. gigantea petals,3,,,
"""beta-elemene""",CHEBI:62855,R. gigantea,http://purl.obolibrary.org/obo/NCBITaxon_74650,petal,http://purl.obolibrary.org/obo/PO_0009032,A,,R. gigantea petals,3,,,
"""methyl eugenol""",CHEBI:14469,R. gigantea,http://purl.obolibrary.org/obo/NCBITaxon_74650,petal,http://purl.obolibrary.org/obo/PO_0009032,A,,R. gigantea petals,3,3.1,,0.93
"""(E)-beta-caryophyllene""",CHEBI:10357,R. gigantea,http://purl.obolibrary.org/obo/NCBITaxon_74650,petal,http://purl.obolibrary.org/obo/PO_0009032,A,,R. gigantea petals,3,0.48,,0.48
"""1,3,5-trimethoxybenzene""",CHEBI:31038,R. gigantea,http://purl.obolibrary.org/obo/NCBITaxon_74650,petal,http://purl.obolibrary.org/obo/PO_0009032,A,,R. gigantea petals,3,,,
"""dihydro-beta-ionone""",CHEBI:18015,R. gigantea,http://purl.obolibrary.org/obo/NCBITaxon_74650,petal,http://purl.obolibrary.org/obo/PO_0009032,A,,R. gigantea petals,3,4.01,,0.09
"""alpha guaiene""",CHEBI:63443,R. gigantea,http://purl.obolibrary.org/obo/NCBITaxon_74650,petal,http://purl.obolibrary.org/obo/PO_0009032,A,,R. gigantea petals,3,,,
"""dihydro-beta-ionol""",,R. gigantea,http://purl.obolibrary.org/obo/NCBITaxon_74650,petal,http://purl.obolibrary.org/obo/PO_0009032,A,,R. gigantea petals,3,15.36,,4.25
"""(E)-beta-farnesene""",CHEBI:10418,R. gigantea,http://purl.obolibrary.org/obo/NCBITaxon_74650,petal,http://purl.obolibrary.org/obo/PO_0009032,A,,R. gigantea petals,3,,,
"""germacrene D""",CHEBI:49045,R. gigantea,http://purl.obolibrary.org/obo/NCBITaxon_74650,petal,http://purl.obolibrary.org/obo/PO_0009032,A,,R. gigantea petals,3,2.11,,0.5
"""pentadecane""",CHEBI:28897,R. gigantea,http://purl.obolibrary.org/obo/NCBITaxon_74650,petal,http://purl.obolibrary.org/obo/PO_0009032,A,,R. gigantea petals,3,,,
"""(E,E)-alpha-farnesene""",CHEBI:10280,R. gigantea,http://purl.obolibrary.org/obo/NCBITaxon_74650,petal,http://purl.obolibrary.org/obo/PO_0009032,A,,R. gigantea petals,3,,,
"""gamma-cadinene""",CHEBI:63205,R. gigantea,http://purl.obolibrary.org/obo/NCBITaxon_74650,petal,http://purl.obolibrary.org/obo/PO_0009032,A,,R. gigantea petals,3,,,
"""delta-cadinene""",CHEBI:140564,R. gigantea,http://purl.obolibrary.org/obo/NCBITaxon_74650,petal,http://purl.obolibrary.org/obo/PO_0009032,A,,R. gigantea petals,3,,,
"""elemol""",CHEBI:141221,R. gigantea,http://purl.obolibrary.org/obo/NCBITaxon_74650,petal,http://purl.obolibrary.org/obo/PO_0009032,A,,R. gigantea petals,3,,,
"""Germacrene D 4 ol""",CHEBI:141218,R. gigantea,http://purl.obolibrary.org/obo/NCBITaxon_74650,petal,http://purl.obolibrary.org/obo/PO_0009032,A,,R. gigantea petals,3,,,
"""hexadecane""",CHEBI:45296,R. gigantea,http://purl.obolibrary.org/obo/NCBITaxon_74650,petal,http://purl.obolibrary.org/obo/PO_0009032,A,,R. gigantea petals,3,14,,4.98
"""Tau-cadinol""",CHEBI:138042,R. gigantea,http://purl.obolibrary.org/obo/NCBITaxon_74650,petal,http://purl.obolibrary.org/obo/PO_0009032,A,,R. gigantea petals,3,,,
"""beta-eudesmol""",CHEBI:10417,R. gigantea,http://purl.obolibrary.org/obo/NCBITaxon_74650,petal,http://purl.obolibrary.org/obo/PO_0009032,A,,R. gigantea petals,3,,,
"""alpha-cadinol""",CHEBI:132905,R. gigantea,http://purl.obolibrary.org/obo/NCBITaxon_74650,petal,http://purl.obolibrary.org/obo/PO_0009032,A,,R. gigantea petals,3,0.28,,0.28
"""heptadecene""",CHEBI:64502,R. gigantea,http://purl.obolibrary.org/obo/NCBITaxon_74650,petal,http://purl.obolibrary.org/obo/PO_0009032,A,,R. gigantea petals,3,14.27,,0.44
"""heptadecane""",CHEBI:16148,R. gigantea,http://purl.obolibrary.org/obo/NCBITaxon_74650,petal,http://purl.obolibrary.org/obo/PO_0009032,A,,R. gigantea petals,3,17.23,,3.46
"""(E,E)-farnesol""",CHEBI:16619,R. gigantea,http://purl.obolibrary.org/obo/NCBITaxon_74650,petal,http://purl.obolibrary.org/obo/PO_0009032,A,,R. gigantea petals,3,,,
"""(E,E)-farnesal""",CHEBI:15894,R. gigantea,http://purl.obolibrary.org/obo/NCBITaxon_74650,petal,http://purl.obolibrary.org/obo/PO_0009032,A,,R. gigantea petals,3,,,
"""(E,E)-farnesyl acetate""",,R. gigantea,http://purl.obolibrary.org/obo/NCBITaxon_74650,petal,http://purl.obolibrary.org/obo/PO_0009032,A,,R. gigantea petals,3,,,
"""hexan-2-ol""",CHEBI:88370,R. Damascena,http://purl.obolibrary.org/obo/NCBITaxon_3765,petal,http://purl.obolibrary.org/obo/PO_0009032,A,,R. Damascena petals,3,0.49,,0.25
"""hexanal""",CHEBI:88528,R. Damascena,http://purl.obolibrary.org/obo/NCBITaxon_3765,petal,http://purl.obolibrary.org/obo/PO_0009032,A,,R. Damascena petals,3,,,
"""(E)-2-hexenal""",CHEBI:28913,R. Damascena,http://purl.obolibrary.org/obo/NCBITaxon_3765,petal,http://purl.obolibrary.org/obo/PO_0009032,A,,R. Damascena petals,3,0.22,,0.22
"""(Z)-3-hexen-1-ol""",CHEBI:28857,R. Damascena,http://purl.obolibrary.org/obo/NCBITaxon_3765,petal,http://purl.obolibrary.org/obo/PO_0009032,A,,R. Damascena petals,3,,,
"""(E)-2-hexen-1-ol""",CHEBI:141205,R. Damascena,http://purl.obolibrary.org/obo/NCBITaxon_3765,petal,http://purl.obolibrary.org/obo/PO_0009032,A,,R. Damascena petals,3,,,
"""hexan-1-ol""",CHEBI:87393,R. Damascena,http://purl.obolibrary.org/obo/NCBITaxon_3765,petal,http://purl.obolibrary.org/obo/PO_0009032,A,,R. Damascena petals,3,,,
"""nonane""",CHEBI:32892,R. Damascena,http://purl.obolibrary.org/obo/NCBITaxon_3765,petal,http://purl.obolibrary.org/obo/PO_0009032,A,,R. Damascena petals,3,,,
"""alpha-pinene""",CHEBI:36740,R. Damascena,http://purl.obolibrary.org/obo/NCBITaxon_3765,petal,http://purl.obolibrary.org/obo/PO_0009032,A,,R. Damascena petals,3,0.65,,0.65
"""benzaldehyde""",CHEBI:17169,R. Damascena,http://purl.obolibrary.org/obo/NCBITaxon_3765,petal,http://purl.obolibrary.org/obo/PO_0009032,A,,R. Damascena petals,3,3.19,,0.84
"""beta-myrcene""",CHEBI:17221,R. Damascena,http://purl.obolibrary.org/obo/NCBITaxon_3765,petal,http://purl.obolibrary.org/obo/PO_0009032,A,,R. Damascena petals,3,5.63,,1.51
"""(Z)-3-hexenyl acetate""",CHEBI:61316,R. Damascena,http://purl.obolibrary.org/obo/NCBITaxon_3765,petal,http://purl.obolibrary.org/obo/PO_0009032,A,,R. Damascena petals,3,,,
"""hexyl acetate""",CHEBI:87510,R. Damascena,http://purl.obolibrary.org/obo/NCBITaxon_3765,petal,http://purl.obolibrary.org/obo/PO_0009032,A,,R. Damascena petals,3,,,
"""(E)-hexenyl acetate""",CHEBI:141209,R. Damascena,http://purl.obolibrary.org/obo/NCBITaxon_3765,petal,http://purl.obolibrary.org/obo/PO_0009032,A,,R. Damascena petals,3,,,
"""(+/-)-limonene""",CHEBI:15384,R. Damascena,http://purl.obolibrary.org/obo/NCBITaxon_3765,petal,http://purl.obolibrary.org/obo/PO_0009032,A,,R. Damascena petals,3,0.16,,0.16
"""benzylalcohol""",CHEBI:17987,R. Damascena,http://purl.obolibrary.org/obo/NCBITaxon_3765,petal,http://purl.obolibrary.org/obo/PO_0009032,A,,R. Damascena petals,3,22.86,,1.5
"""phenylacetaldehyde""",CHEBI:16424,R. Damascena,http://purl.obolibrary.org/obo/NCBITaxon_3765,petal,http://purl.obolibrary.org/obo/PO_0009032,A,,R. Damascena petals,3,,,
"""(E)-beta-ocimene""",CHEBI:64280,R. Damascena,http://purl.obolibrary.org/obo/NCBITaxon_3765,petal,http://purl.obolibrary.org/obo/PO_0009032,A,,R. Damascena petals,3,3.28,,0.56
"""(+/-)-linalool""",CHEBI:17580,R. Damascena,http://purl.obolibrary.org/obo/NCBITaxon_3765,petal,http://purl.obolibrary.org/obo/PO_0009032,A,,R. Damascena petals,3,,,
"""nonanal""",CHEBI:84268,R. Damascena,http://purl.obolibrary.org/obo/NCBITaxon_3765,petal,http://purl.obolibrary.org/obo/PO_0009032,A,,R. Damascena petals,3,,,
"""2-phenylethanol""",CHEBI:49000,R. Damascena,http://purl.obolibrary.org/obo/NCBITaxon_3765,petal,http://purl.obolibrary.org/obo/PO_0009032,A,,R. Damascena petals,3,1029.17,,62.24
"""(+/-)-beta-citronellal""",CHEBI:47856,R. Damascena,http://purl.obolibrary.org/obo/NCBITaxon_3765,petal,http://purl.obolibrary.org/obo/PO_0009032,A,,R. Damascena petals,3,3.7,,0.21
"""(+/-)-alpha-terpineol""",CHEBI:22469,R. Damascena,http://purl.obolibrary.org/obo/NCBITaxon_3765,petal,http://purl.obolibrary.org/obo/PO_0009032,A,,R. Damascena petals,3,,,
"""decanal""",CHEBI:31457,R. Damascena,http://purl.obolibrary.org/obo/NCBITaxon_3765,petal,http://purl.obolibrary.org/obo/PO_0009032,A,,R. Damascena petals,3,,,
"""nerol""",CHEBI:29452,R. Damascena,http://purl.obolibrary.org/obo/NCBITaxon_3765,petal,http://purl.obolibrary.org/obo/PO_0009032,A,,R. Damascena petals,3,47.51,,15.18
"""(+/-)-beta-citronellol""",CHEBI:50462,R. Damascena,http://purl.obolibrary.org/obo/NCBITaxon_3765,petal,http://purl.obolibrary.org/obo/PO_0009032,A,,R. Damascena petals,3,102.68,,6.75
"""neral""",CHEBI:29020,R. Damascena,http://purl.obolibrary.org/obo/NCBITaxon_3765,petal,http://purl.obolibrary.org/obo/PO_0009032,A,,R. Damascena petals,3,17.36,,2.21
"""geraniol""",CHEBI:17447,R. Damascena,http://purl.obolibrary.org/obo/NCBITaxon_3765,petal,http://purl.obolibrary.org/obo/PO_0009032,A,,R. Damascena petals,3,142.9,,32.69
"""beta-phenylethyl acetate""",CHEBI:31988,R. Damascena,http://purl.obolibrary.org/obo/NCBITaxon_3765,petal,http://purl.obolibrary.org/obo/PO_0009032,A,,R. Damascena petals,3,3.06,,1.63
"""3,5-dimethoxytoluene""",CHEBI:141217,R. Damascena,http://purl.obolibrary.org/obo/NCBITaxon_3765,petal,http://purl.obolibrary.org/obo/PO_0009032,A,,R. Damascena petals,3,,,
"""geranial""",CHEBI:16980,R. Damascena,http://purl.obolibrary.org/obo/NCBITaxon_3765,petal,http://purl.obolibrary.org/obo/PO_0009032,A,,R. Damascena petals,3,41.19,,4.36
"""undecanal""",CHEBI:46202,R. Damascena,http://purl.obolibrary.org/obo/NCBITaxon_3765,petal,http://purl.obolibrary.org/obo/PO_0009032,A,,R. Damascena petals,3,,,
"""theaspirane A""",CHEBI:89598,R. Damascena,http://purl.obolibrary.org/obo/NCBITaxon_3765,petal,http://purl.obolibrary.org/obo/PO_0009032,A,,R. Damascena petals,3,,,
"""(+/-)-beta-citronellyl acetate""",CHEBI:70478,R. Damascena,http://purl.obolibrary.org/obo/NCBITaxon_3765,petal,http://purl.obolibrary.org/obo/PO_0009032,A,,R. Damascena petals,3,1.43,,0.22
"""eugenol""",CHEBI:4917,R. Damascena,http://purl.obolibrary.org/obo/NCBITaxon_3765,petal,http://purl.obolibrary.org/obo/PO_0009032,A,,R. Damascena petals,3,4.01,,1.42
"""neryl acetate""",CHEBI:141210,R. Damascena,http://purl.obolibrary.org/obo/NCBITaxon_3765,petal,http://purl.obolibrary.org/obo/PO_0009032,A,,R. Damascena petals,3,,,
"""alpha-copaene""",CHEBI:10221,R. Damascena,http://purl.obolibrary.org/obo/NCBITaxon_3765,petal,http://purl.obolibrary.org/obo/PO_0009032,A,,R. Damascena petals,3,,,
"""geranyl acetate""",CHEBI:5331,R. Damascena,http://purl.obolibrary.org/obo/NCBITaxon_3765,petal,http://purl.obolibrary.org/obo/PO_0009032,A,,R. Damascena petals,3,8.16,,1.08
"""beta-elemene""",CHEBI:62855,R. Damascena,http://purl.obolibrary.org/obo/NCBITaxon_3765,petal,http://purl.obolibrary.org/obo/PO_0009032,A,,R. Damascena petals,3,,,
"""methyl eugenol""",CHEBI:14469,R. Damascena,http://purl.obolibrary.org/obo/NCBITaxon_3765,petal,http://purl.obolibrary.org/obo/PO_0009032,A,,R. Damascena petals,3,2.29,,1.29
"""(E)-beta-caryophyllene""",CHEBI:10357,R. Damascena,http://purl.obolibrary.org/obo/NCBITaxon_3765,petal,http://purl.obolibrary.org/obo/PO_0009032,A,,R. Damascena petals,3,,,
"""1,3,5-trimethoxybenzene""",CHEBI:31038,R. Damascena,http://purl.obolibrary.org/obo/NCBITaxon_3765,petal,http://purl.obolibrary.org/obo/PO_0009032,A,,R. Damascena petals,3,,,
"""dihydro-beta-ionone""",CHEBI:18015,R. Damascena,http://purl.obolibrary.org/obo/NCBITaxon_3765,petal,http://purl.obolibrary.org/obo/PO_0009032,A,,R. Damascena petals,3,,,
"""alpha guaiene""",CHEBI:63443,R. Damascena,http://purl.obolibrary.org/obo/NCBITaxon_3765,petal,http://purl.obolibrary.org/obo/PO_0009032,A,,R. Damascena petals,3,,,
"""dihydro-beta-ionol""",,R. Damascena,http://purl.obolibrary.org/obo/NCBITaxon_3765,petal,http://purl.obolibrary.org/obo/PO_0009032,A,,R. Damascena petals,3,,,
"""(E)-beta-farnesene""",CHEBI:10418,R. Damascena,http://purl.obolibrary.org/obo/NCBITaxon_3765,petal,http://purl.obolibrary.org/obo/PO_0009032,A,,R. Damascena petals,3,0.4,,0.4
"""germacrene D""",CHEBI:49045,R. Damascena,http://purl.obolibrary.org/obo/NCBITaxon_3765,petal,http://purl.obolibrary.org/obo/PO_0009032,A,,R. Damascena petals,3,0.3,,0.34
"""pentadecane""",CHEBI:28897,R. Damascena,http://purl.obolibrary.org/obo/NCBITaxon_3765,petal,http://purl.obolibrary.org/obo/PO_0009032,A,,R. Damascena petals,3,1.55,,0.16
"""(E,E)-alpha-farnesene""",CHEBI:10280,R. Damascena,http://purl.obolibrary.org/obo/NCBITaxon_3765,petal,http://purl.obolibrary.org/obo/PO_0009032,A,,R. Damascena petals,3,3.3,,2.65
"""gamma-cadinene""",CHEBI:63205,R. Damascena,http://purl.obolibrary.org/obo/NCBITaxon_3765,petal,http://purl.obolibrary.org/obo/PO_0009032,A,,R. Damascena petals,3,,,
"""delta-cadinene""",CHEBI:140564,R. Damascena,http://purl.obolibrary.org/obo/NCBITaxon_3765,petal,http://purl.obolibrary.org/obo/PO_0009032,A,,R. Damascena petals,3,,,
"""elemol""",CHEBI:141221,R. Damascena,http://purl.obolibrary.org/obo/NCBITaxon_3765,petal,http://purl.obolibrary.org/obo/PO_0009032,A,,R. Damascena petals,3,2.98,,0.82
"""Germacrene D 4 ol""",CHEBI:141218,R. Damascena,http://purl.obolibrary.org/obo/NCBITaxon_3765,petal,http://purl.obolibrary.org/obo/PO_0009032,A,,R. Damascena petals,3,,,
"""hexadecane""",CHEBI:45296,R. Damascena,http://purl.obolibrary.org/obo/NCBITaxon_3765,petal,http://purl.obolibrary.org/obo/PO_0009032,A,,R. Damascena petals,3,0.6,,0.65
"""Tau-cadinol""",CHEBI:138042,R. Damascena,http://purl.obolibrary.org/obo/NCBITaxon_3765,petal,http://purl.obolibrary.org/obo/PO_0009032,A,,R. Damascena petals,3,,,
"""beta-eudesmol""",CHEBI:10417,R. Damascena,http://purl.obolibrary.org/obo/NCBITaxon_3765,petal,http://purl.obolibrary.org/obo/PO_0009032,A,,R. Damascena petals,3,,,
"""alpha-cadinol""",CHEBI:132905,R. Damascena,http://purl.obolibrary.org/obo/NCBITaxon_3765,petal,http://purl.obolibrary.org/obo/PO_0009032,A,,R. Damascena petals,3,,,
"""heptadecene""",CHEBI:64502,R. Damascena,http://purl.obolibrary.org/obo/NCBITaxon_3765,petal,http://purl.obolibrary.org/obo/PO_0009032,A,,R. Damascena petals,3,4.43,,0.75
"""heptadecane""",CHEBI:16148,R. Damascena,http://purl.obolibrary.org/obo/NCBITaxon_3765,petal,http://purl.obolibrary.org/obo/PO_0009032,A,,R. Damascena petals,3,42.45,,0.09
"""(E,E)-farnesol""",CHEBI:16619,R. Damascena,http://purl.obolibrary.org/obo/NCBITaxon_3765,petal,http://purl.obolibrary.org/obo/PO_0009032,A,,R. Damascena petals,3,8.12,,1.55
"""(E,E)-farnesal""",CHEBI:15894,R. Damascena,http://purl.obolibrary.org/obo/NCBITaxon_3765,petal,http://purl.obolibrary.org/obo/PO_0009032,A,,R. Damascena petals,3,0.59,,0.59
"""(E,E)-farnesyl acetate""",,R. Damascena,http://purl.obolibrary.org/obo/NCBITaxon_3765,petal,http://purl.obolibrary.org/obo/PO_0009032,A,,R. Damascena petals,3,,,
"""hexan-2-ol""",CHEBI:88370,R. Gallica,http://purl.obolibrary.org/obo/NCBITaxon_74632,petal,http://purl.obolibrary.org/obo/PO_0009032,A,,R. Gallica petals,3,,,
"""hexanal""",CHEBI:88528,R. Gallica,http://purl.obolibrary.org/obo/NCBITaxon_74632,petal,http://purl.obolibrary.org/obo/PO_0009032,A,,R. Gallica petals,3,,,
"""(E)-2-hexenal""",CHEBI:28913,R. Gallica,http://purl.obolibrary.org/obo/NCBITaxon_74632,petal,http://purl.obolibrary.org/obo/PO_0009032,A,,R. Gallica petals,3,,,
"""(Z)-3-hexen-1-ol""",CHEBI:28857,R. Gallica,http://purl.obolibrary.org/obo/NCBITaxon_74632,petal,http://purl.obolibrary.org/obo/PO_0009032,A,,R. Gallica petals,3,,,
"""(E)-2-hexen-1-ol""",CHEBI:141205,R. Gallica,http://purl.obolibrary.org/obo/NCBITaxon_74632,petal,http://purl.obolibrary.org/obo/PO_0009032,A,,R. Gallica petals,3,,,
"""hexan-1-ol""",CHEBI:87393,R. Gallica,http://purl.obolibrary.org/obo/NCBITaxon_74632,petal,http://purl.obolibrary.org/obo/PO_0009032,A,,R. Gallica petals,3,,,
"""nonane""",CHEBI:32892,R. Gallica,http://purl.obolibrary.org/obo/NCBITaxon_74632,petal,http://purl.obolibrary.org/obo/PO_0009032,A,,R. Gallica petals,3,,,
"""alpha-pinene""",CHEBI:36740,R. Gallica,http://purl.obolibrary.org/obo/NCBITaxon_74632,petal,http://purl.obolibrary.org/obo/PO_0009032,A,,R. Gallica petals,3,1.01,,0.11
"""benzaldehyde""",CHEBI:17169,R. Gallica,http://purl.obolibrary.org/obo/NCBITaxon_74632,petal,http://purl.obolibrary.org/obo/PO_0009032,A,,R. Gallica petals,3,,,
"""beta-myrcene""",CHEBI:17221,R. Gallica,http://purl.obolibrary.org/obo/NCBITaxon_74632,petal,http://purl.obolibrary.org/obo/PO_0009032,A,,R. Gallica petals,3,6.83,,0.2
"""(Z)-3-hexenyl acetate""",CHEBI:61316,R. Gallica,http://purl.obolibrary.org/obo/NCBITaxon_74632,petal,http://purl.obolibrary.org/obo/PO_0009032,A,,R. Gallica petals,3,,,
"""hexyl acetate""",CHEBI:87510,R. Gallica,http://purl.obolibrary.org/obo/NCBITaxon_74632,petal,http://purl.obolibrary.org/obo/PO_0009032,A,,R. Gallica petals,3,,,
"""(E)-hexenyl acetate""",CHEBI:141209,R. Gallica,http://purl.obolibrary.org/obo/NCBITaxon_74632,petal,http://purl.obolibrary.org/obo/PO_0009032,A,,R. Gallica petals,3,,,
"""(+/-)-limonene""",CHEBI:15384,R. Gallica,http://purl.obolibrary.org/obo/NCBITaxon_74632,petal,http://purl.obolibrary.org/obo/PO_0009032,A,,R. Gallica petals,3,,,
"""benzylalcohol""",CHEBI:17987,R. Gallica,http://purl.obolibrary.org/obo/NCBITaxon_74632,petal,http://purl.obolibrary.org/obo/PO_0009032,A,,R. Gallica petals,3,17.21,,0.62
"""phenylacetaldehyde""",CHEBI:16424,R. Gallica,http://purl.obolibrary.org/obo/NCBITaxon_74632,petal,http://purl.obolibrary.org/obo/PO_0009032,A,,R. Gallica petals,3,,,
"""(E)-beta-ocimene""",CHEBI:64280,R. Gallica,http://purl.obolibrary.org/obo/NCBITaxon_74632,petal,http://purl.obolibrary.org/obo/PO_0009032,A,,R. Gallica petals,3,1.98,,0.08
"""(+/-)-linalool""",CHEBI:17580,R. Gallica,http://purl.obolibrary.org/obo/NCBITaxon_74632,petal,http://purl.obolibrary.org/obo/PO_0009032,A,,R. Gallica petals,3,1.08,,0.07
"""nonanal""",CHEBI:84268,R. Gallica,http://purl.obolibrary.org/obo/NCBITaxon_74632,petal,http://purl.obolibrary.org/obo/PO_0009032,A,,R. Gallica petals,3,,,
"""2-phenylethanol""",CHEBI:49000,R. Gallica,http://purl.obolibrary.org/obo/NCBITaxon_74632,petal,http://purl.obolibrary.org/obo/PO_0009032,A,,R. Gallica petals,3,593.37,,27.06
"""(+/-)-beta-citronellal""",CHEBI:47856,R. Gallica,http://purl.obolibrary.org/obo/NCBITaxon_74632,petal,http://purl.obolibrary.org/obo/PO_0009032,A,,R. Gallica petals,3,,,
"""(+/-)-alpha-terpineol""",CHEBI:22469,R. Gallica,http://purl.obolibrary.org/obo/NCBITaxon_74632,petal,http://purl.obolibrary.org/obo/PO_0009032,A,,R. Gallica petals,3,,,
"""decanal""",CHEBI:31457,R. Gallica,http://purl.obolibrary.org/obo/NCBITaxon_74632,petal,http://purl.obolibrary.org/obo/PO_0009032,A,,R. Gallica petals,3,,,
"""nerol""",CHEBI:29452,R. Gallica,http://purl.obolibrary.org/obo/NCBITaxon_74632,petal,http://purl.obolibrary.org/obo/PO_0009032,A,,R. Gallica petals,3,41.84,,5.24
"""(+/-)-beta-citronellol""",CHEBI:50462,R. Gallica,http://purl.obolibrary.org/obo/NCBITaxon_74632,petal,http://purl.obolibrary.org/obo/PO_0009032,A,,R. Gallica petals,3,17.48,,1.17
"""neral""",CHEBI:29020,R. Gallica,http://purl.obolibrary.org/obo/NCBITaxon_74632,petal,http://purl.obolibrary.org/obo/PO_0009032,A,,R. Gallica petals,3,1.92,,0.26
"""geraniol""",CHEBI:17447,R. Gallica,http://purl.obolibrary.org/obo/NCBITaxon_74632,petal,http://purl.obolibrary.org/obo/PO_0009032,A,,R. Gallica petals,3,118.01,,7.22
"""beta-phenylethyl acetate""",CHEBI:31988,R. Gallica,http://purl.obolibrary.org/obo/NCBITaxon_74632,petal,http://purl.obolibrary.org/obo/PO_0009032,A,,R. Gallica petals,3,,,
"""3,5-dimethoxytoluene""",CHEBI:141217,R. Gallica,http://purl.obolibrary.org/obo/NCBITaxon_74632,petal,http://purl.obolibrary.org/obo/PO_0009032,A,,R. Gallica petals,3,,,
"""geranial""",CHEBI:16980,R. Gallica,http://purl.obolibrary.org/obo/NCBITaxon_74632,petal,http://purl.obolibrary.org/obo/PO_0009032,A,,R. Gallica petals,3,7.51,,0.78
"""undecanal""",CHEBI:46202,R. Gallica,http://purl.obolibrary.org/obo/NCBITaxon_74632,petal,http://purl.obolibrary.org/obo/PO_0009032,A,,R. Gallica petals,3,,,
"""theaspirane A""",CHEBI:89598,R. Gallica,http://purl.obolibrary.org/obo/NCBITaxon_74632,petal,http://purl.obolibrary.org/obo/PO_0009032,A,,R. Gallica petals,3,,,
"""(+/-)-beta-citronellyl acetate""",CHEBI:70478,R. Gallica,http://purl.obolibrary.org/obo/NCBITaxon_74632,petal,http://purl.obolibrary.org/obo/PO_0009032,A,,R. Gallica petals,3,0.02,,0.02
"""eugenol""",CHEBI:4917,R. Gallica,http://purl.obolibrary.org/obo/NCBITaxon_74632,petal,http://purl.obolibrary.org/obo/PO_0009032,A,,R. Gallica petals,3,,,
"""neryl acetate""",CHEBI:141210,R. Gallica,http://purl.obolibrary.org/obo/NCBITaxon_74632,petal,http://purl.obolibrary.org/obo/PO_0009032,A,,R. Gallica petals,3,0.05,,0
"""alpha-copaene""",CHEBI:10221,R. Gallica,http://purl.obolibrary.org/obo/NCBITaxon_74632,petal,http://purl.obolibrary.org/obo/PO_0009032,A,,R. Gallica petals,3,,,
"""geranyl acetate""",CHEBI:5331,R. Gallica,http://purl.obolibrary.org/obo/NCBITaxon_74632,petal,http://purl.obolibrary.org/obo/PO_0009032,A,,R. Gallica petals,3,5.52,,0.57
"""beta-elemene""",CHEBI:62855,R. Gallica,http://purl.obolibrary.org/obo/NCBITaxon_74632,petal,http://purl.obolibrary.org/obo/PO_0009032,A,,R. Gallica petals,3,,,
"""methyl eugenol""",CHEBI:14469,R. Gallica,http://purl.obolibrary.org/obo/NCBITaxon_74632,petal,http://purl.obolibrary.org/obo/PO_0009032,A,,R. Gallica petals,3,,,
"""(E)-beta-caryophyllene""",CHEBI:10357,R. Gallica,http://purl.obolibrary.org/obo/NCBITaxon_74632,petal,http://purl.obolibrary.org/obo/PO_0009032,A,,R. Gallica petals,3,1.2,,0.6
"""1,3,5-trimethoxybenzene""",CHEBI:31038,R. Gallica,http://purl.obolibrary.org/obo/NCBITaxon_74632,petal,http://purl.obolibrary.org/obo/PO_0009032,A,,R. Gallica petals,3,,,
"""dihydro-beta-ionone""",CHEBI:18015,R. Gallica,http://purl.obolibrary.org/obo/NCBITaxon_74632,petal,http://purl.obolibrary.org/obo/PO_0009032,A,,R. Gallica petals,3,,,
"""alpha guaiene""",CHEBI:63443,R. Gallica,http://purl.obolibrary.org/obo/NCBITaxon_74632,petal,http://purl.obolibrary.org/obo/PO_0009032,A,,R. Gallica petals,3,,,
"""dihydro-beta-ionol""",,R. Gallica,http://purl.obolibrary.org/obo/NCBITaxon_74632,petal,http://purl.obolibrary.org/obo/PO_0009032,A,,R. Gallica petals,3,,,
"""(E)-beta-farnesene""",CHEBI:10418,R. Gallica,http://purl.obolibrary.org/obo/NCBITaxon_74632,petal,http://purl.obolibrary.org/obo/PO_0009032,A,,R. Gallica petals,3,0.06,,0
"""germacrene D""",CHEBI:49045,R. Gallica,http://purl.obolibrary.org/obo/NCBITaxon_74632,petal,http://purl.obolibrary.org/obo/PO_0009032,A,,R. Gallica petals,3,,,
"""pentadecane""",CHEBI:28897,R. Gallica,http://purl.obolibrary.org/obo/NCBITaxon_74632,petal,http://purl.obolibrary.org/obo/PO_0009032,A,,R. Gallica petals,3,,,
"""(E,E)-alpha-farnesene""",CHEBI:10280,R. Gallica,http://purl.obolibrary.org/obo/NCBITaxon_74632,petal,http://purl.obolibrary.org/obo/PO_0009032,A,,R. Gallica petals,3,0.04,,0.02
"""gamma-cadinene""",CHEBI:63205,R. Gallica,http://purl.obolibrary.org/obo/NCBITaxon_74632,petal,http://purl.obolibrary.org/obo/PO_0009032,A,,R. Gallica petals,3,,,
"""delta-cadinene""",CHEBI:140564,R. Gallica,http://purl.obolibrary.org/obo/NCBITaxon_74632,petal,http://purl.obolibrary.org/obo/PO_0009032,A,,R. Gallica petals,3,,,
"""elemol""",CHEBI:141221,R. Gallica,http://purl.obolibrary.org/obo/NCBITaxon_74632,petal,http://purl.obolibrary.org/obo/PO_0009032,A,,R. Gallica petals,3,16.89,,1.73
"""Germacrene D 4 ol""",CHEBI:141218,R. Gallica,http://purl.obolibrary.org/obo/NCBITaxon_74632,petal,http://purl.obolibrary.org/obo/PO_0009032,A,,R. Gallica petals,3,,,
"""hexadecane""",CHEBI:45296,R. Gallica,http://purl.obolibrary.org/obo/NCBITaxon_74632,petal,http://purl.obolibrary.org/obo/PO_0009032,A,,R. Gallica petals,3,,,
"""Tau-cadinol""",CHEBI:138042,R. Gallica,http://purl.obolibrary.org/obo/NCBITaxon_74632,petal,http://purl.obolibrary.org/obo/PO_0009032,A,,R. Gallica petals,3,,,
"""beta-eudesmol""",CHEBI:10417,R. Gallica,http://purl.obolibrary.org/obo/NCBITaxon_74632,petal,http://purl.obolibrary.org/obo/PO_0009032,A,,R. Gallica petals,3,3.99,,0.51
"""alpha-cadinol""",CHEBI:132905,R. Gallica,http://purl.obolibrary.org/obo/NCBITaxon_74632,petal,http://purl.obolibrary.org/obo/PO_0009032,A,,R. Gallica petals,3,,,
"""heptadecene""",CHEBI:64502,R. Gallica,http://purl.obolibrary.org/obo/NCBITaxon_74632,petal,http://purl.obolibrary.org/obo/PO_0009032,A,,R. Gallica petals,3,4.2,,0.63
"""heptadecane""",CHEBI:16148,R. Gallica,http://purl.obolibrary.org/obo/NCBITaxon_74632,petal,http://purl.obolibrary.org/obo/PO_0009032,A,,R. Gallica petals,3,25.23,,2.46
"""(E,E)-farnesol""",CHEBI:16619,R. Gallica,http://purl.obolibrary.org/obo/NCBITaxon_74632,petal,http://purl.obolibrary.org/obo/PO_0009032,A,,R. Gallica petals,3,0.04,,0.02
"""(E,E)-farnesal""",CHEBI:15894,R. Gallica,http://purl.obolibrary.org/obo/NCBITaxon_74632,petal,http://purl.obolibrary.org/obo/PO_0009032,A,,R. Gallica petals,3,,,
"""(E,E)-farnesyl acetate""",,R. Gallica,http://purl.obolibrary.org/obo/NCBITaxon_74632,petal,http://purl.obolibrary.org/obo/PO_0009032,A,,R. Gallica petals,3,,,
"""hexan-2-ol""",CHEBI:88370,R. moschata,http://purl.obolibrary.org/obo/NCBITaxon_74646,petal,http://purl.obolibrary.org/obo/PO_0009032,A,,R. moschata petals,3,,,
"""hexanal""",CHEBI:88528,R. moschata,http://purl.obolibrary.org/obo/NCBITaxon_74646,petal,http://purl.obolibrary.org/obo/PO_0009032,A,,R. moschata petals,3,,,
"""(E)-2-hexenal""",CHEBI:28913,R. moschata,http://purl.obolibrary.org/obo/NCBITaxon_74646,petal,http://purl.obolibrary.org/obo/PO_0009032,A,,R. moschata petals,3,,,
"""(Z)-3-hexen-1-ol""",CHEBI:28857,R. moschata,http://purl.obolibrary.org/obo/NCBITaxon_74646,petal,http://purl.obolibrary.org/obo/PO_0009032,A,,R. moschata petals,3,,,
"""(E)-2-hexen-1-ol""",CHEBI:141205,R. moschata,http://purl.obolibrary.org/obo/NCBITaxon_74646,petal,http://purl.obolibrary.org/obo/PO_0009032,A,,R. moschata petals,3,,,
"""hexan-1-ol""",CHEBI:87393,R. moschata,http://purl.obolibrary.org/obo/NCBITaxon_74646,petal,http://purl.obolibrary.org/obo/PO_0009032,A,,R. moschata petals,3,,,
"""nonane""",CHEBI:32892,R. moschata,http://purl.obolibrary.org/obo/NCBITaxon_74646,petal,http://purl.obolibrary.org/obo/PO_0009032,A,,R. moschata petals,3,,,
"""alpha-pinene""",CHEBI:36740,R. moschata,http://purl.obolibrary.org/obo/NCBITaxon_74646,petal,http://purl.obolibrary.org/obo/PO_0009032,A,,R. moschata petals,3,,,
"""benzaldehyde""",CHEBI:17169,R. moschata,http://purl.obolibrary.org/obo/NCBITaxon_74646,petal,http://purl.obolibrary.org/obo/PO_0009032,A,,R. moschata petals,3,,,
"""beta-myrcene""",CHEBI:17221,R. moschata,http://purl.obolibrary.org/obo/NCBITaxon_74646,petal,http://purl.obolibrary.org/obo/PO_0009032,A,,R. moschata petals,3,3.08,,0.28
"""(Z)-3-hexenyl acetate""",CHEBI:61316,R. moschata,http://purl.obolibrary.org/obo/NCBITaxon_74646,petal,http://purl.obolibrary.org/obo/PO_0009032,A,,R. moschata petals,3,,,
"""hexyl acetate""",CHEBI:87510,R. moschata,http://purl.obolibrary.org/obo/NCBITaxon_74646,petal,http://purl.obolibrary.org/obo/PO_0009032,A,,R. moschata petals,3,,,
"""(E)-hexenyl acetate""",CHEBI:141209,R. moschata,http://purl.obolibrary.org/obo/NCBITaxon_74646,petal,http://purl.obolibrary.org/obo/PO_0009032,A,,R. moschata petals,3,,,
"""(+/-)-limonene""",CHEBI:15384,R. moschata,http://purl.obolibrary.org/obo/NCBITaxon_74646,petal,http://purl.obolibrary.org/obo/PO_0009032,A,,R. moschata petals,3,,,
"""benzylalcohol""",CHEBI:17987,R. moschata,http://purl.obolibrary.org/obo/NCBITaxon_74646,petal,http://purl.obolibrary.org/obo/PO_0009032,A,,R. moschata petals,3,,,
"""phenylacetaldehyde""",CHEBI:16424,R. moschata,http://purl.obolibrary.org/obo/NCBITaxon_74646,petal,http://purl.obolibrary.org/obo/PO_0009032,A,,R. moschata petals,3,,,
"""(E)-beta-ocimene""",CHEBI:64280,R. moschata,http://purl.obolibrary.org/obo/NCBITaxon_74646,petal,http://purl.obolibrary.org/obo/PO_0009032,A,,R. moschata petals,3,,,
"""(+/-)-linalool""",CHEBI:17580,R. moschata,http://purl.obolibrary.org/obo/NCBITaxon_74646,petal,http://purl.obolibrary.org/obo/PO_0009032,A,,R. moschata petals,3,,,
"""nonanal""",CHEBI:84268,R. moschata,http://purl.obolibrary.org/obo/NCBITaxon_74646,petal,http://purl.obolibrary.org/obo/PO_0009032,A,,R. moschata petals,3,,,
"""2-phenylethanol""",CHEBI:49000,R. moschata,http://purl.obolibrary.org/obo/NCBITaxon_74646,petal,http://purl.obolibrary.org/obo/PO_0009032,A,,R. moschata petals,3,186.9,,41.09
"""(+/-)-beta-citronellal""",CHEBI:47856,R. moschata,http://purl.obolibrary.org/obo/NCBITaxon_74646,petal,http://purl.obolibrary.org/obo/PO_0009032,A,,R. moschata petals,3,,,
"""(+/-)-alpha-terpineol""",CHEBI:22469,R. moschata,http://purl.obolibrary.org/obo/NCBITaxon_74646,petal,http://purl.obolibrary.org/obo/PO_0009032,A,,R. moschata petals,3,,,
"""decanal""",CHEBI:31457,R. moschata,http://purl.obolibrary.org/obo/NCBITaxon_74646,petal,http://purl.obolibrary.org/obo/PO_0009032,A,,R. moschata petals,3,,,
"""nerol""",CHEBI:29452,R. moschata,http://purl.obolibrary.org/obo/NCBITaxon_74646,petal,http://purl.obolibrary.org/obo/PO_0009032,A,,R. moschata petals,3,,,
"""(+/-)-beta-citronellol""",CHEBI:50462,R. moschata,http://purl.obolibrary.org/obo/NCBITaxon_74646,petal,http://purl.obolibrary.org/obo/PO_0009032,A,,R. moschata petals,3,,,
"""neral""",CHEBI:29020,R. moschata,http://purl.obolibrary.org/obo/NCBITaxon_74646,petal,http://purl.obolibrary.org/obo/PO_0009032,A,,R. moschata petals,3,,,
"""geraniol""",CHEBI:17447,R. moschata,http://purl.obolibrary.org/obo/NCBITaxon_74646,petal,http://purl.obolibrary.org/obo/PO_0009032,A,,R. moschata petals,3,34.19,,6.84
"""beta-phenylethyl acetate""",CHEBI:31988,R. moschata,http://purl.obolibrary.org/obo/NCBITaxon_74646,petal,http://purl.obolibrary.org/obo/PO_0009032,A,,R. moschata petals,3,,,
"""3,5-dimethoxytoluene""",CHEBI:141217,R. moschata,http://purl.obolibrary.org/obo/NCBITaxon_74646,petal,http://purl.obolibrary.org/obo/PO_0009032,A,,R. moschata petals,3,,,
"""geranial""",CHEBI:16980,R. moschata,http://purl.obolibrary.org/obo/NCBITaxon_74646,petal,http://purl.obolibrary.org/obo/PO_0009032,A,,R. moschata petals,3,0.8,,0.75
"""undecanal""",CHEBI:46202,R. moschata,http://purl.obolibrary.org/obo/NCBITaxon_74646,petal,http://purl.obolibrary.org/obo/PO_0009032,A,,R. moschata petals,3,,,
"""theaspirane A""",CHEBI:89598,R. moschata,http://purl.obolibrary.org/obo/NCBITaxon_74646,petal,http://purl.obolibrary.org/obo/PO_0009032,A,,R. moschata petals,3,,,
"""(+/-)-beta-citronellyl acetate""",CHEBI:70478,R. moschata,http://purl.obolibrary.org/obo/NCBITaxon_74646,petal,http://purl.obolibrary.org/obo/PO_0009032,A,,R. moschata petals,3,,,
"""eugenol""",CHEBI:4917,R. moschata,http://purl.obolibrary.org/obo/NCBITaxon_74646,petal,http://purl.obolibrary.org/obo/PO_0009032,A,,R. moschata petals,3,73.87,,12.83
"""neryl acetate""",CHEBI:141210,R. moschata,http://purl.obolibrary.org/obo/NCBITaxon_74646,petal,http://purl.obolibrary.org/obo/PO_0009032,A,,R. moschata petals,3,,,
"""alpha-copaene""",CHEBI:10221,R. moschata,http://purl.obolibrary.org/obo/NCBITaxon_74646,petal,http://purl.obolibrary.org/obo/PO_0009032,A,,R. moschata petals,3,,,
"""geranyl acetate""",CHEBI:5331,R. moschata,http://purl.obolibrary.org/obo/NCBITaxon_74646,petal,http://purl.obolibrary.org/obo/PO_0009032,A,,R. moschata petals,3,,,
"""beta-elemene""",CHEBI:62855,R. moschata,http://purl.obolibrary.org/obo/NCBITaxon_74646,petal,http://purl.obolibrary.org/obo/PO_0009032,A,,R. moschata petals,3,,,
"""methyl eugenol""",CHEBI:14469,R. moschata,http://purl.obolibrary.org/obo/NCBITaxon_74646,petal,http://purl.obolibrary.org/obo/PO_0009032,A,,R. moschata petals,3,,,
"""(E)-beta-caryophyllene""",CHEBI:10357,R. moschata,http://purl.obolibrary.org/obo/NCBITaxon_74646,petal,http://purl.obolibrary.org/obo/PO_0009032,A,,R. moschata petals,3,,,
"""1,3,5-trimethoxybenzene""",CHEBI:31038,R. moschata,http://purl.obolibrary.org/obo/NCBITaxon_74646,petal,http://purl.obolibrary.org/obo/PO_0009032,A,,R. moschata petals,3,,,
"""dihydro-beta-ionone""",CHEBI:18015,R. moschata,http://purl.obolibrary.org/obo/NCBITaxon_74646,petal,http://purl.obolibrary.org/obo/PO_0009032,A,,R. moschata petals,3,,,
"""alpha guaiene""",CHEBI:63443,R. moschata,http://purl.obolibrary.org/obo/NCBITaxon_74646,petal,http://purl.obolibrary.org/obo/PO_0009032,A,,R. moschata petals,3,,,
"""dihydro-beta-ionol""",,R. moschata,http://purl.obolibrary.org/obo/NCBITaxon_74646,petal,http://purl.obolibrary.org/obo/PO_0009032,A,,R. moschata petals,3,,,
"""(E)-beta-farnesene""",CHEBI:10418,R. moschata,http://purl.obolibrary.org/obo/NCBITaxon_74646,petal,http://purl.obolibrary.org/obo/PO_0009032,A,,R. moschata petals,3,,,
"""germacrene D""",CHEBI:49045,R. moschata,http://purl.obolibrary.org/obo/NCBITaxon_74646,petal,http://purl.obolibrary.org/obo/PO_0009032,A,,R. moschata petals,3,,,
"""pentadecane""",CHEBI:28897,R. moschata,http://purl.obolibrary.org/obo/NCBITaxon_74646,petal,http://purl.obolibrary.org/obo/PO_0009032,A,,R. moschata petals,3,,,
"""(E,E)-alpha-farnesene""",CHEBI:10280,R. moschata,http://purl.obolibrary.org/obo/NCBITaxon_74646,petal,http://purl.obolibrary.org/obo/PO_0009032,A,,R. moschata petals,3,,,
"""gamma-cadinene""",CHEBI:63205,R. moschata,http://purl.obolibrary.org/obo/NCBITaxon_74646,petal,http://purl.obolibrary.org/obo/PO_0009032,A,,R. moschata petals,3,,,
"""delta-cadinene""",CHEBI:140564,R. moschata,http://purl.obolibrary.org/obo/NCBITaxon_74646,petal,http://purl.obolibrary.org/obo/PO_0009032,A,,R. moschata petals,3,,,
"""elemol""",CHEBI:141221,R. moschata,http://purl.obolibrary.org/obo/NCBITaxon_74646,petal,http://purl.obolibrary.org/obo/PO_0009032,A,,R. moschata petals,3,,,
"""Germacrene D 4 ol""",CHEBI:141218,R. moschata,http://purl.obolibrary.org/obo/NCBITaxon_74646,petal,http://purl.obolibrary.org/obo/PO_0009032,A,,R. moschata petals,3,,,
"""hexadecane""",CHEBI:45296,R. moschata,http://purl.obolibrary.org/obo/NCBITaxon_74646,petal,http://purl.obolibrary.org/obo/PO_0009032,A,,R. moschata petals,3, ,,
"""Tau-cadinol""",CHEBI:138042,R. moschata,http://purl.obolibrary.org/obo/NCBITaxon_74646,petal,http://purl.obolibrary.org/obo/PO_0009032,A,,R. moschata petals,3,,,
"""beta-eudesmol""",CHEBI:10417,R. moschata,http://purl.obolibrary.org/obo/NCBITaxon_74646,petal,http://purl.obolibrary.org/obo/PO_0009032,A,,R. moschata petals,3,,,
"""alpha-cadinol""",CHEBI:132905,R. moschata,http://purl.obolibrary.org/obo/NCBITaxon_74646,petal,http://purl.obolibrary.org/obo/PO_0009032,A,,R. moschata petals,3,,,
"""heptadecene""",CHEBI:64502,R. moschata,http://purl.obolibrary.org/obo/NCBITaxon_74646,petal,http://purl.obolibrary.org/obo/PO_0009032,A,,R. moschata petals,3,1.24,,0.63
"""heptadecane""",CHEBI:16148,R. moschata,http://purl.obolibrary.org/obo/NCBITaxon_74646,petal,http://purl.obolibrary.org/obo/PO_0009032,A,,R. moschata petals,3,3.03,,0.27
"""(E,E)-farnesol""",CHEBI:16619,R. moschata,http://purl.obolibrary.org/obo/NCBITaxon_74646,petal,http://purl.obolibrary.org/obo/PO_0009032,A,,R. moschata petals,3,,,
"""(E,E)-farnesal""",CHEBI:15894,R. moschata,http://purl.obolibrary.org/obo/NCBITaxon_74646,petal,http://purl.obolibrary.org/obo/PO_0009032,A,,R. moschata petals,3,,,
"""(E,E)-farnesyl acetate""",,R. moschata,http://purl.obolibrary.org/obo/NCBITaxon_74646,petal,http://purl.obolibrary.org/obo/PO_0009032,A,,R. moschata petals,3,,,
"""hexan-2-ol""",CHEBI:88370,R. wichurana ,http://purl.obolibrary.org/obo/NCBITaxon_2094184,petal,http://purl.obolibrary.org/obo/PO_0009032,A,,R. wichurana petals,3,0.04,,0.04
"""hexanal""",CHEBI:88528,R. wichurana ,http://purl.obolibrary.org/obo/NCBITaxon_2094184,petal,http://purl.obolibrary.org/obo/PO_0009032,A,,R. wichurana petals,3,0.18,,0.09
"""(E)-2-hexenal""",CHEBI:28913,R. wichurana ,http://purl.obolibrary.org/obo/NCBITaxon_2094184,petal,http://purl.obolibrary.org/obo/PO_0009032,A,,R. wichurana petals,3,1.18,,0.06
"""(Z)-3-hexen-1-ol""",CHEBI:28857,R. wichurana ,http://purl.obolibrary.org/obo/NCBITaxon_2094184,petal,http://purl.obolibrary.org/obo/PO_0009032,A,,R. wichurana petals,3,1.65,,0.04
"""(E)-2-hexen-1-ol""",CHEBI:141205,R. wichurana ,http://purl.obolibrary.org/obo/NCBITaxon_2094184,petal,http://purl.obolibrary.org/obo/PO_0009032,A,,R. wichurana petals,3,,,
"""hexan-1-ol""",CHEBI:87393,R. wichurana ,http://purl.obolibrary.org/obo/NCBITaxon_2094184,petal,http://purl.obolibrary.org/obo/PO_0009032,A,,R. wichurana petals,3,,,
"""nonane""",CHEBI:32892,R. wichurana ,http://purl.obolibrary.org/obo/NCBITaxon_2094184,petal,http://purl.obolibrary.org/obo/PO_0009032,A,,R. wichurana petals,3,,,
"""alpha-pinene""",CHEBI:36740,R. wichurana ,http://purl.obolibrary.org/obo/NCBITaxon_2094184,petal,http://purl.obolibrary.org/obo/PO_0009032,A,,R. wichurana petals,3,,,
"""benzaldehyde""",CHEBI:17169,R. wichurana ,http://purl.obolibrary.org/obo/NCBITaxon_2094184,petal,http://purl.obolibrary.org/obo/PO_0009032,A,,R. wichurana petals,3,,,
"""beta-myrcene""",CHEBI:17221,R. wichurana ,http://purl.obolibrary.org/obo/NCBITaxon_2094184,petal,http://purl.obolibrary.org/obo/PO_0009032,A,,R. wichurana petals,3,,,
"""(Z)-3-hexenyl acetate""",CHEBI:61316,R. wichurana ,http://purl.obolibrary.org/obo/NCBITaxon_2094184,petal,http://purl.obolibrary.org/obo/PO_0009032,A,,R. wichurana petals,3,,,
"""hexyl acetate""",CHEBI:87510,R. wichurana ,http://purl.obolibrary.org/obo/NCBITaxon_2094184,petal,http://purl.obolibrary.org/obo/PO_0009032,A,,R. wichurana petals,3,,,
"""(E)-hexenyl acetate""",CHEBI:141209,R. wichurana ,http://purl.obolibrary.org/obo/NCBITaxon_2094184,petal,http://purl.obolibrary.org/obo/PO_0009032,A,,R. wichurana petals,3,0.2,,0.02
"""(+/-)-limonene""",CHEBI:15384,R. wichurana ,http://purl.obolibrary.org/obo/NCBITaxon_2094184,petal,http://purl.obolibrary.org/obo/PO_0009032,A,,R. wichurana petals,3,,,
"""benzylalcohol""",CHEBI:17987,R. wichurana ,http://purl.obolibrary.org/obo/NCBITaxon_2094184,petal,http://purl.obolibrary.org/obo/PO_0009032,A,,R. wichurana petals,3,,,
"""phenylacetaldehyde""",CHEBI:16424,R. wichurana ,http://purl.obolibrary.org/obo/NCBITaxon_2094184,petal,http://purl.obolibrary.org/obo/PO_0009032,A,,R. wichurana petals,3,0.41,,0.03
"""(E)-beta-ocimene""",CHEBI:64280,R. wichurana ,http://purl.obolibrary.org/obo/NCBITaxon_2094184,petal,http://purl.obolibrary.org/obo/PO_0009032,A,,R. wichurana petals,3,,,
"""(+/-)-linalool""",CHEBI:17580,R. wichurana ,http://purl.obolibrary.org/obo/NCBITaxon_2094184,petal,http://purl.obolibrary.org/obo/PO_0009032,A,,R. wichurana petals,3,,,
"""nonanal""",CHEBI:84268,R. wichurana ,http://purl.obolibrary.org/obo/NCBITaxon_2094184,petal,http://purl.obolibrary.org/obo/PO_0009032,A,,R. wichurana petals,3,,,
"""2-phenylethanol""",CHEBI:49000,R. wichurana ,http://purl.obolibrary.org/obo/NCBITaxon_2094184,petal,http://purl.obolibrary.org/obo/PO_0009032,A,,R. wichurana petals,3,109.94,,5.32
"""(+/-)-beta-citronellal""",CHEBI:47856,R. wichurana ,http://purl.obolibrary.org/obo/NCBITaxon_2094184,petal,http://purl.obolibrary.org/obo/PO_0009032,A,,R. wichurana petals,3,,,
"""(+/-)-alpha-terpineol""",CHEBI:22469,R. wichurana ,http://purl.obolibrary.org/obo/NCBITaxon_2094184,petal,http://purl.obolibrary.org/obo/PO_0009032,A,,R. wichurana petals,3,,,
"""decanal""",CHEBI:31457,R. wichurana ,http://purl.obolibrary.org/obo/NCBITaxon_2094184,petal,http://purl.obolibrary.org/obo/PO_0009032,A,,R. wichurana petals,3,,,
"""nerol""",CHEBI:29452,R. wichurana ,http://purl.obolibrary.org/obo/NCBITaxon_2094184,petal,http://purl.obolibrary.org/obo/PO_0009032,A,,R. wichurana petals,3,,,
"""(+/-)-beta-citronellol""",CHEBI:50462,R. wichurana ,http://purl.obolibrary.org/obo/NCBITaxon_2094184,petal,http://purl.obolibrary.org/obo/PO_0009032,A,,R. wichurana petals,3,,,
"""neral""",CHEBI:29020,R. wichurana ,http://purl.obolibrary.org/obo/NCBITaxon_2094184,petal,http://purl.obolibrary.org/obo/PO_0009032,A,,R. wichurana petals,3,,,
"""geraniol""",CHEBI:17447,R. wichurana ,http://purl.obolibrary.org/obo/NCBITaxon_2094184,petal,http://purl.obolibrary.org/obo/PO_0009032,A,,R. wichurana petals,3,,,
"""beta-phenylethyl acetate""",CHEBI:31988,R. wichurana ,http://purl.obolibrary.org/obo/NCBITaxon_2094184,petal,http://purl.obolibrary.org/obo/PO_0009032,A,,R. wichurana petals,3,0.82,,0.04
"""3,5-dimethoxytoluene""",CHEBI:141217,R. wichurana ,http://purl.obolibrary.org/obo/NCBITaxon_2094184,petal,http://purl.obolibrary.org/obo/PO_0009032,A,,R. wichurana petals,3,,,
"""geranial""",CHEBI:16980,R. wichurana ,http://purl.obolibrary.org/obo/NCBITaxon_2094184,petal,http://purl.obolibrary.org/obo/PO_0009032,A,,R. wichurana petals,3,,,
"""undecanal""",CHEBI:46202,R. wichurana ,http://purl.obolibrary.org/obo/NCBITaxon_2094184,petal,http://purl.obolibrary.org/obo/PO_0009032,A,,R. wichurana petals,3,,,
"""theaspirane A""",CHEBI:89598,R. wichurana ,http://purl.obolibrary.org/obo/NCBITaxon_2094184,petal,http://purl.obolibrary.org/obo/PO_0009032,A,,R. wichurana petals,3,,,
"""(+/-)-beta-citronellyl acetate""",CHEBI:70478,R. wichurana ,http://purl.obolibrary.org/obo/NCBITaxon_2094184,petal,http://purl.obolibrary.org/obo/PO_0009032,A,,R. wichurana petals,3,,,
"""eugenol""",CHEBI:4917,R. wichurana ,http://purl.obolibrary.org/obo/NCBITaxon_2094184,petal,http://purl.obolibrary.org/obo/PO_0009032,A,,R. wichurana petals,3,,,
"""neryl acetate""",CHEBI:141210,R. wichurana ,http://purl.obolibrary.org/obo/NCBITaxon_2094184,petal,http://purl.obolibrary.org/obo/PO_0009032,A,,R. wichurana petals,3,,,
"""alpha-copaene""",CHEBI:10221,R. wichurana ,http://purl.obolibrary.org/obo/NCBITaxon_2094184,petal,http://purl.obolibrary.org/obo/PO_0009032,A,,R. wichurana petals,3,,,
"""geranyl acetate""",CHEBI:5331,R. wichurana ,http://purl.obolibrary.org/obo/NCBITaxon_2094184,petal,http://purl.obolibrary.org/obo/PO_0009032,A,,R. wichurana petals,3,0.36,,0.03
"""beta-elemene""",CHEBI:62855,R. wichurana ,http://purl.obolibrary.org/obo/NCBITaxon_2094184,petal,http://purl.obolibrary.org/obo/PO_0009032,A,,R. wichurana petals,3,,,
"""methyl eugenol""",CHEBI:14469,R. wichurana ,http://purl.obolibrary.org/obo/NCBITaxon_2094184,petal,http://purl.obolibrary.org/obo/PO_0009032,A,,R. wichurana petals,3,,,
"""(E)-beta-caryophyllene""",CHEBI:10357,R. wichurana ,http://purl.obolibrary.org/obo/NCBITaxon_2094184,petal,http://purl.obolibrary.org/obo/PO_0009032,A,,R. wichurana petals,3,0.45,,0.06
"""1,3,5-trimethoxybenzene""",CHEBI:31038,R. wichurana ,http://purl.obolibrary.org/obo/NCBITaxon_2094184,petal,http://purl.obolibrary.org/obo/PO_0009032,A,,R. wichurana petals,3,,,
"""dihydro-beta-ionone""",CHEBI:18015,R. wichurana ,http://purl.obolibrary.org/obo/NCBITaxon_2094184,petal,http://purl.obolibrary.org/obo/PO_0009032,A,,R. wichurana petals,3,0.08,,0.08
"""alpha guaiene""",CHEBI:63443,R. wichurana ,http://purl.obolibrary.org/obo/NCBITaxon_2094184,petal,http://purl.obolibrary.org/obo/PO_0009032,A,,R. wichurana petals,3,,,
"""dihydro-beta-ionol""",,R. wichurana ,http://purl.obolibrary.org/obo/NCBITaxon_2094184,petal,http://purl.obolibrary.org/obo/PO_0009032,A,,R. wichurana petals,3,0.68,,0.06
"""(E)-beta-farnesene""",CHEBI:10418,R. wichurana ,http://purl.obolibrary.org/obo/NCBITaxon_2094184,petal,http://purl.obolibrary.org/obo/PO_0009032,A,,R. wichurana petals,3,1.37,,0.05
"""germacrene D""",CHEBI:49045,R. wichurana ,http://purl.obolibrary.org/obo/NCBITaxon_2094184,petal,http://purl.obolibrary.org/obo/PO_0009032,A,,R. wichurana petals,3,,,
"""pentadecane""",CHEBI:28897,R. wichurana ,http://purl.obolibrary.org/obo/NCBITaxon_2094184,petal,http://purl.obolibrary.org/obo/PO_0009032,A,,R. wichurana petals,3,,,
"""(E,E)-alpha-farnesene""",CHEBI:10280,R. wichurana ,http://purl.obolibrary.org/obo/NCBITaxon_2094184,petal,http://purl.obolibrary.org/obo/PO_0009032,A,,R. wichurana petals,3,0.58,,0.06
"""gamma-cadinene""",CHEBI:63205,R. wichurana ,http://purl.obolibrary.org/obo/NCBITaxon_2094184,petal,http://purl.obolibrary.org/obo/PO_0009032,A,,R. wichurana petals,3,,,
"""delta-cadinene""",CHEBI:140564,R. wichurana ,http://purl.obolibrary.org/obo/NCBITaxon_2094184,petal,http://purl.obolibrary.org/obo/PO_0009032,A,,R. wichurana petals,3,,,
"""elemol""",CHEBI:141221,R. wichurana ,http://purl.obolibrary.org/obo/NCBITaxon_2094184,petal,http://purl.obolibrary.org/obo/PO_0009032,A,,R. wichurana petals,3,,,
"""Germacrene D 4 ol""",CHEBI:141218,R. wichurana ,http://purl.obolibrary.org/obo/NCBITaxon_2094184,petal,http://purl.obolibrary.org/obo/PO_0009032,A,,R. wichurana petals,3,,,
"""hexadecane""",CHEBI:45296,R. wichurana ,http://purl.obolibrary.org/obo/NCBITaxon_2094184,petal,http://purl.obolibrary.org/obo/PO_0009032,A,,R. wichurana petals,3,,,
"""Tau-cadinol""",CHEBI:138042,R. wichurana ,http://purl.obolibrary.org/obo/NCBITaxon_2094184,petal,http://purl.obolibrary.org/obo/PO_0009032,A,,R. wichurana petals,3,,,
"""beta-eudesmol""",CHEBI:10417,R. wichurana ,http://purl.obolibrary.org/obo/NCBITaxon_2094184,petal,http://purl.obolibrary.org/obo/PO_0009032,A,,R. wichurana petals,3,,,
"""alpha-cadinol""",CHEBI:132905,R. wichurana ,http://purl.obolibrary.org/obo/NCBITaxon_2094184,petal,http://purl.obolibrary.org/obo/PO_0009032,A,,R. wichurana petals,3,,,
"""heptadecene""",CHEBI:64502,R. wichurana ,http://purl.obolibrary.org/obo/NCBITaxon_2094184,petal,http://purl.obolibrary.org/obo/PO_0009032,A,,R. wichurana petals,3,,,
"""heptadecane""",CHEBI:16148,R. wichurana ,http://purl.obolibrary.org/obo/NCBITaxon_2094184,petal,http://purl.obolibrary.org/obo/PO_0009032,A,,R. wichurana petals,3,0.56,,0.03
"""(E,E)-farnesol""",CHEBI:16619,R. wichurana ,http://purl.obolibrary.org/obo/NCBITaxon_2094184,petal,http://purl.obolibrary.org/obo/PO_0009032,A,,R. wichurana petals,3,7.47,,0.5
"""(E,E)-farnesal""",CHEBI:15894,R. wichurana ,http://purl.obolibrary.org/obo/NCBITaxon_2094184,petal,http://purl.obolibrary.org/obo/PO_0009032,A,,R. wichurana petals,3,0.62,,0.05
"""(E,E)-farnesyl acetate""",,R. wichurana ,http://purl.obolibrary.org/obo/NCBITaxon_2094184,petal,http://purl.obolibrary.org/obo/PO_0009032,A,,R. wichurana petals,3,4.21,,0.25